<?xml version="1.0" encoding="iso-8859-1"?>
<!-- Generator: Adobe Illustrator 16.0.0, SVG Export Plug-In . SVG Version: 6.00 Build 0)  -->
<!DOCTYPE svg PUBLIC "-//W3C//DTD SVG 1.1//EN" "http://www.w3.org/Graphics/SVG/1.1/DTD/svg11.dtd">
<svg version="1.1" id="Capa_1" xmlns="http://www.w3.org/2000/svg" xmlns:xlink="http://www.w3.org/1999/xlink" x="0px" y="0px"
	 width="33.167px" height="33.166px" viewBox="0 0 33.167 33.166" style="enable-background:new 0 0 33.167 33.166;"
	 xml:space="preserve">
<g>
	<path d="M31.386,23.167l-1.556,2.332c-3.248,4.873-8.076,7.667-13.248,7.667c-5.171,0-10-2.794-13.248-7.667L1.78,23.167h8.319
		c0.829,0,1.5,0.671,1.5,1.5s-0.671,1.5-1.5,1.5H7.703c2.104,2.173,4.665,3.521,7.379,3.886V13.999h-4.333
		c-0.829,0-1.5-0.671-1.5-1.5s0.671-1.5,1.5-1.5h4.334V8.043c-1.558-0.604-2.667-2.106-2.667-3.877C12.416,1.865,14.281,0,16.583,0
		c2.302,0,4.167,1.865,4.167,4.166c0,1.771-1.109,3.274-2.668,3.877v2.956h4.334c0.828,0,1.5,0.671,1.5,1.5s-0.672,1.5-1.5,1.5
		h-4.334v16.054c2.715-0.367,5.274-1.713,7.379-3.886h-2.396c-0.829,0-1.5-0.671-1.5-1.5s0.671-1.5,1.5-1.5H31.386z"/>
</g>
<g>
</g>
<g>
</g>
<g>
</g>
<g>
</g>
<g>
</g>
<g>
</g>
<g>
</g>
<g>
</g>
<g>
</g>
<g>
</g>
<g>
</g>
<g>
</g>
<g>
</g>
<g>
</g>
<g>
</g>
</svg>
