<?xml version="1.0" encoding="iso-8859-1"?>
<!-- Generator: Adobe Illustrator 16.0.0, SVG Export Plug-In . SVG Version: 6.00 Build 0)  -->
<!DOCTYPE svg PUBLIC "-//W3C//DTD SVG 1.1//EN" "http://www.w3.org/Graphics/SVG/1.1/DTD/svg11.dtd">
<svg version="1.1" id="Capa_1" xmlns="http://www.w3.org/2000/svg" xmlns:xlink="http://www.w3.org/1999/xlink" x="0px" y="0px"
	 width="29.18px" height="29.18px" viewBox="0 0 29.18 29.18" style="enable-background:new 0 0 29.18 29.18;" xml:space="preserve"
	>
<g>
	<path d="M27.678,0.9H1.5C0.671,0.9,0,1.572,0,2.4v5.613C0,8.825,0.648,9.486,1.458,9.51c0,0.01-0.002,0.018-0.002,0.024v17.245
		c0,0.828,0.671,1.5,1.5,1.5h23.268c0.829,0,1.5-0.672,1.5-1.5V9.534c0-0.01-0.002-0.018-0.002-0.024
		c0.81-0.023,1.458-0.685,1.458-1.496V2.4C29.178,1.571,28.507,0.9,27.678,0.9z M24.723,25.279H4.455V11.034h20.268V25.279z
		 M9.652,14.59c0-0.828,0.671-1.5,1.5-1.5h6.875c0.828,0,1.5,0.672,1.5,1.5s-0.672,1.5-1.5,1.5h-6.875
		C10.323,16.09,9.652,15.418,9.652,14.59z"/>
</g>
<g>
</g>
<g>
</g>
<g>
</g>
<g>
</g>
<g>
</g>
<g>
</g>
<g>
</g>
<g>
</g>
<g>
</g>
<g>
</g>
<g>
</g>
<g>
</g>
<g>
</g>
<g>
</g>
<g>
</g>
</svg>
