<?xml version="1.0" encoding="iso-8859-1"?>
<!-- Generator: Adobe Illustrator 16.0.0, SVG Export Plug-In . SVG Version: 6.00 Build 0)  -->
<!DOCTYPE svg PUBLIC "-//W3C//DTD SVG 1.1//EN" "http://www.w3.org/Graphics/SVG/1.1/DTD/svg11.dtd">
<svg version="1.1" id="Capa_1" xmlns="http://www.w3.org/2000/svg" xmlns:xlink="http://www.w3.org/1999/xlink" x="0px" y="0px"
	 width="34.885px" height="34.885px" viewBox="0 0 34.885 34.885" style="enable-background:new 0 0 34.885 34.885;"
	 xml:space="preserve">
<g>
	<path d="M32.884,7.823h-7.12V3.659c0-1.104-0.896-2-2-2H11.119c-1.104,0-2,0.896-2,2v4.164H2c-1.104,0-2,0.896-2,2v21.403
		c0,1.104,0.896,2,2,2h30.885c1.104,0,2-0.896,2-2V9.823C34.884,8.719,33.988,7.823,32.884,7.823z M23.033,11.823v17.403H11.85
		V11.823H23.033z M13.121,5.66h8.645v2.164h-8.645V5.66z M4,11.823h5.852v17.403H4V11.823z M30.884,29.226h-5.853V11.823h5.853
		V29.226z"/>
</g>
<g>
</g>
<g>
</g>
<g>
</g>
<g>
</g>
<g>
</g>
<g>
</g>
<g>
</g>
<g>
</g>
<g>
</g>
<g>
</g>
<g>
</g>
<g>
</g>
<g>
</g>
<g>
</g>
<g>
</g>
</svg>
