<?xml version="1.0" encoding="iso-8859-1"?>
<!-- Generator: Adobe Illustrator 16.0.0, SVG Export Plug-In . SVG Version: 6.00 Build 0)  -->
<!DOCTYPE svg PUBLIC "-//W3C//DTD SVG 1.1//EN" "http://www.w3.org/Graphics/SVG/1.1/DTD/svg11.dtd">
<svg version="1.1" id="Capa_1" xmlns="http://www.w3.org/2000/svg" xmlns:xlink="http://www.w3.org/1999/xlink" x="0px" y="0px"
	 width="31.637px" height="31.637px" viewBox="0 0 31.637 31.637" style="enable-background:new 0 0 31.637 31.637;"
	 xml:space="preserve">
<g>
	<path d="M10.774,8.166C10.121,7.33,9.72,6.334,9.72,5.25c0-2.9,2.729-5.25,6.1-5.25c3.372,0,6.1,2.35,6.1,5.25
		c0,1.084-0.398,2.08-1.055,2.916H10.774z M29.068,17.5h-3.666c-0.188-1.854-0.721-3.563-1.51-5.055l3.281-3.566
		c0.562-0.608,0.521-1.559-0.088-2.119c-0.607-0.56-1.557-0.522-2.119,0.088l-2.848,3.095c-0.213-0.228-0.434-0.442-0.658-0.649
		h-4.268v21.573c1.873-0.334,3.57-1.325,4.938-2.793l2.834,3.08c0.297,0.318,0.699,0.482,1.105,0.482
		c0.361,0,0.729-0.131,1.016-0.396c0.609-0.562,0.65-1.51,0.088-2.118l-3.27-3.556c0.787-1.49,1.311-3.213,1.498-5.064h3.666
		c0.828,0,1.5-0.674,1.5-1.5C30.568,18.173,29.896,17.5,29.068,17.5z M9.519,9.941L6.67,6.847C6.109,6.236,5.16,6.199,4.551,6.759
		s-0.649,1.51-0.088,2.119l3.283,3.565c-0.789,1.489-1.324,3.201-1.511,5.056H2.569c-0.828,0-1.5,0.672-1.5,1.5
		c0,0.827,0.672,1.5,1.5,1.5h3.666c0.188,1.854,0.711,3.575,1.499,5.065l-3.271,3.555c-0.562,0.609-0.521,1.558,0.088,2.119
		c0.288,0.267,0.652,0.396,1.016,0.396c0.404,0,0.808-0.164,1.104-0.483l2.835-3.08c1.366,1.467,3.066,2.459,4.939,2.793V9.29
		h-4.269C9.951,9.498,9.731,9.714,9.519,9.941z"/>
</g>
<g>
</g>
<g>
</g>
<g>
</g>
<g>
</g>
<g>
</g>
<g>
</g>
<g>
</g>
<g>
</g>
<g>
</g>
<g>
</g>
<g>
</g>
<g>
</g>
<g>
</g>
<g>
</g>
<g>
</g>
</svg>
