<?xml version="1.0" encoding="iso-8859-1"?>
<!-- Generator: Adobe Illustrator 16.0.0, SVG Export Plug-In . SVG Version: 6.00 Build 0)  -->
<!DOCTYPE svg PUBLIC "-//W3C//DTD SVG 1.1//EN" "http://www.w3.org/Graphics/SVG/1.1/DTD/svg11.dtd">
<svg version="1.1" id="Capa_1" xmlns="http://www.w3.org/2000/svg" xmlns:xlink="http://www.w3.org/1999/xlink" x="0px" y="0px"
	 width="26.362px" height="26.361px" viewBox="0 0 26.362 26.361" style="enable-background:new 0 0 26.362 26.361;"
	 xml:space="preserve">
<g>
	<path d="M24.361,0H2C0.896,0,0,0.896,0,2v22.361c0,1.104,0.896,2,2,2h22.36c1.104,0,2-0.896,2-2V2C26.361,0.896,25.465,0,24.361,0z
		 M21.125,9.953l-8.199,8.2c-0.375,0.375-0.884,0.586-1.414,0.586c-0.529,0-1.039-0.21-1.414-0.586l-4.861-4.862
		c-0.781-0.78-0.781-2.047,0-2.828c0.781-0.78,2.047-0.78,2.828,0l3.447,3.447l6.785-6.785c0.781-0.78,2.047-0.78,2.828,0
		C21.908,7.907,21.908,9.172,21.125,9.953z"/>
</g>
<g>
</g>
<g>
</g>
<g>
</g>
<g>
</g>
<g>
</g>
<g>
</g>
<g>
</g>
<g>
</g>
<g>
</g>
<g>
</g>
<g>
</g>
<g>
</g>
<g>
</g>
<g>
</g>
<g>
</g>
</svg>
