<?xml version="1.0" encoding="iso-8859-1"?>
<!-- Generator: Adobe Illustrator 16.0.0, SVG Export Plug-In . SVG Version: 6.00 Build 0)  -->
<!DOCTYPE svg PUBLIC "-//W3C//DTD SVG 1.1//EN" "http://www.w3.org/Graphics/SVG/1.1/DTD/svg11.dtd">
<svg version="1.1" id="Capa_1" xmlns="http://www.w3.org/2000/svg" xmlns:xlink="http://www.w3.org/1999/xlink" x="0px" y="0px"
	 width="30.121px" height="30.121px" viewBox="0 0 30.121 30.121" style="enable-background:new 0 0 30.121 30.121;"
	 xml:space="preserve">
<g>
	<path d="M24.051,19.556c3.357-0.062,6.07-2.81,6.07-6.183c0-3.366-2.703-6.107-6.051-6.181V5.245H5.174V19.36
		c0,0.826,0.325,1.576,0.846,2.142H0c0,1.863,2.198,3.374,4.908,3.374h19.428c2.71,0,4.908-1.511,4.908-3.374h-6.021
		C23.704,20.983,24.004,20.306,24.051,19.556z M24.07,9.199c2.244,0.073,4.052,1.911,4.052,4.174c0,2.265-1.808,4.103-4.052,4.174
		V9.199z"/>
</g>
<g>
</g>
<g>
</g>
<g>
</g>
<g>
</g>
<g>
</g>
<g>
</g>
<g>
</g>
<g>
</g>
<g>
</g>
<g>
</g>
<g>
</g>
<g>
</g>
<g>
</g>
<g>
</g>
<g>
</g>
</svg>
