<?xml version="1.0" encoding="iso-8859-1"?>
<!-- Generator: Adobe Illustrator 16.0.0, SVG Export Plug-In . SVG Version: 6.00 Build 0)  -->
<!DOCTYPE svg PUBLIC "-//W3C//DTD SVG 1.1//EN" "http://www.w3.org/Graphics/SVG/1.1/DTD/svg11.dtd">
<svg version="1.1" id="Capa_1" xmlns="http://www.w3.org/2000/svg" xmlns:xlink="http://www.w3.org/1999/xlink" x="0px" y="0px"
	 width="25.361px" height="25.361px" viewBox="0 0 25.361 25.361" style="enable-background:new 0 0 25.361 25.361;"
	 xml:space="preserve">
<g>
	<path d="M23.862,0.001H1.5c-0.829,0-1.5,0.672-1.5,1.5V23.86c0,0.828,0.671,1.5,1.5,1.5h22.361c0.828,0,1.5-0.672,1.5-1.5V1.501
		C25.362,0.673,24.689,0.001,23.862,0.001z M12.709,18.386L5.393,7.344l14.521-0.072L12.709,18.386z"/>
</g>
<g>
</g>
<g>
</g>
<g>
</g>
<g>
</g>
<g>
</g>
<g>
</g>
<g>
</g>
<g>
</g>
<g>
</g>
<g>
</g>
<g>
</g>
<g>
</g>
<g>
</g>
<g>
</g>
<g>
</g>
</svg>
