<?xml version="1.0" encoding="iso-8859-1"?>
<!-- Generator: Adobe Illustrator 16.0.0, SVG Export Plug-In . SVG Version: 6.00 Build 0)  -->
<!DOCTYPE svg PUBLIC "-//W3C//DTD SVG 1.1//EN" "http://www.w3.org/Graphics/SVG/1.1/DTD/svg11.dtd">
<svg version="1.1" id="Capa_1" xmlns="http://www.w3.org/2000/svg" xmlns:xlink="http://www.w3.org/1999/xlink" x="0px" y="0px"
	 width="28px" height="28px" viewBox="0 0 28 28" style="enable-background:new 0 0 28 28;" xml:space="preserve">
<g>
	<path d="M27.527,0.713C27.254,0.27,26.771,0,26.25,0H14.322c-0.567,0-1.085,0.318-1.34,0.826l-12.573,25
		c-0.233,0.465-0.209,1.018,0.063,1.461C0.745,27.73,1.229,28,1.75,28h11.928c0.567,0,1.084-0.318,1.339-0.826l12.572-25
		C27.824,1.709,27.8,1.156,27.527,0.713z M12.753,25h-8.57l3.491-6.941h8.57L12.753,25z"/>
</g>
<g>
</g>
<g>
</g>
<g>
</g>
<g>
</g>
<g>
</g>
<g>
</g>
<g>
</g>
<g>
</g>
<g>
</g>
<g>
</g>
<g>
</g>
<g>
</g>
<g>
</g>
<g>
</g>
<g>
</g>
</svg>
