<?xml version="1.0" encoding="iso-8859-1"?>
<!-- Generator: Adobe Illustrator 16.0.0, SVG Export Plug-In . SVG Version: 6.00 Build 0)  -->
<!DOCTYPE svg PUBLIC "-//W3C//DTD SVG 1.1//EN" "http://www.w3.org/Graphics/SVG/1.1/DTD/svg11.dtd">
<svg version="1.1" id="Capa_1" xmlns="http://www.w3.org/2000/svg" xmlns:xlink="http://www.w3.org/1999/xlink" x="0px" y="0px"
	 width="36.085px" height="36.086px" viewBox="0 0 36.085 36.086" style="enable-background:new 0 0 36.085 36.086;"
	 xml:space="preserve">
<g>
	<path d="M32.361,0.932C31.994,0.352,31.356,0,30.67,0h-10c-0.771,0-1.476,0.442-1.807,1.143L3.608,33.227
		c-0.295,0.619-0.251,1.346,0.115,1.926s1.005,0.934,1.69,0.934h10c0.772,0,1.476-0.443,1.806-1.143L32.477,2.859
		C32.772,2.238,32.729,1.512,32.361,0.932z M14.151,32.084H8.58l4.234-8.904h5.57L14.151,32.084z"/>
</g>
<g>
</g>
<g>
</g>
<g>
</g>
<g>
</g>
<g>
</g>
<g>
</g>
<g>
</g>
<g>
</g>
<g>
</g>
<g>
</g>
<g>
</g>
<g>
</g>
<g>
</g>
<g>
</g>
<g>
</g>
</svg>
