<?xml version="1.0" encoding="iso-8859-1"?>
<!-- Generator: Adobe Illustrator 16.0.0, SVG Export Plug-In . SVG Version: 6.00 Build 0)  -->
<!DOCTYPE svg PUBLIC "-//W3C//DTD SVG 1.1//EN" "http://www.w3.org/Graphics/SVG/1.1/DTD/svg11.dtd">
<svg version="1.1" id="Capa_1" xmlns="http://www.w3.org/2000/svg" xmlns:xlink="http://www.w3.org/1999/xlink" x="0px" y="0px"
	 width="24.832px" height="24.832px" viewBox="0 0 24.832 24.832" style="enable-background:new 0 0 24.832 24.832;"
	 xml:space="preserve">
<g>
	<path d="M23.508,15.91v0.84c0,3.576-0.805,5.883-2.411,6.92c-1.193,0.775-3.75,1.162-7.67,1.162c-4.578,0-7.42-0.787-8.529-2.359
		c-0.643-0.918-1.102-2.766-1.376-5.543H1.324l0.447-3.004h1.537c-0.036-0.895-0.062-1.894-0.072-3.003H1.324l0.447-3.002h1.537
		c0.214-2.969,0.941-4.977,2.18-6.025C6.978,0.632,10,0,14.552,0c3.492,0,5.815,0.521,6.973,1.558
		c1.062,0.952,1.646,3.026,1.752,6.221l0.02,0.555h-4.65V7.709c0-1.717-0.416-2.807-1.25-3.273
		c-0.562-0.309-1.818-0.463-3.771-0.463c-2.622,0-4.227,0.352-4.811,1.055c-0.369,0.439-0.619,1.406-0.75,2.896h8.42l-0.447,3.002
		H7.938v0.357c0,0.895,0.013,1.775,0.036,2.646h7.616l-0.445,3.004H8.133c0.131,1.321,0.328,2.205,0.59,2.646
		c0.513,0.854,2.068,1.285,4.667,1.285c2.312,0,3.808-0.236,4.487-0.716c0.728-0.514,1.065-1.562,1.021-3.145l-0.037-1.092h4.646
		L23.508,15.91L23.508,15.91z"/>
</g>
<g>
</g>
<g>
</g>
<g>
</g>
<g>
</g>
<g>
</g>
<g>
</g>
<g>
</g>
<g>
</g>
<g>
</g>
<g>
</g>
<g>
</g>
<g>
</g>
<g>
</g>
<g>
</g>
<g>
</g>
</svg>
