<?xml version="1.0" encoding="iso-8859-1"?>
<!-- Generator: Adobe Illustrator 16.0.0, SVG Export Plug-In . SVG Version: 6.00 Build 0)  -->
<!DOCTYPE svg PUBLIC "-//W3C//DTD SVG 1.1//EN" "http://www.w3.org/Graphics/SVG/1.1/DTD/svg11.dtd">
<svg version="1.1" id="Capa_1" xmlns="http://www.w3.org/2000/svg" xmlns:xlink="http://www.w3.org/1999/xlink" x="0px" y="0px"
	 width="30.334px" height="30.334px" viewBox="0 0 30.334 30.334" style="enable-background:new 0 0 30.334 30.334;"
	 xml:space="preserve">
<g>
	<path d="M15.167,0C6.805,0,0.001,6.804,0.001,15.167c0,8.362,6.804,15.167,15.166,15.167c8.361,0,15.166-6.805,15.166-15.167
		C30.333,6.804,23.528,0,15.167,0z M17.167,25.667h-4v-4.5h4V25.667z M17.167,19.542h-4V5.167h4V19.542z"/>
</g>
<g>
</g>
<g>
</g>
<g>
</g>
<g>
</g>
<g>
</g>
<g>
</g>
<g>
</g>
<g>
</g>
<g>
</g>
<g>
</g>
<g>
</g>
<g>
</g>
<g>
</g>
<g>
</g>
<g>
</g>
</svg>
