<?xml version="1.0" encoding="iso-8859-1"?>
<!-- Generator: Adobe Illustrator 16.0.0, SVG Export Plug-In . SVG Version: 6.00 Build 0)  -->
<!DOCTYPE svg PUBLIC "-//W3C//DTD SVG 1.1//EN" "http://www.w3.org/Graphics/SVG/1.1/DTD/svg11.dtd">
<svg version="1.1" id="Capa_1" xmlns="http://www.w3.org/2000/svg" xmlns:xlink="http://www.w3.org/1999/xlink" x="0px" y="0px"
	 width="26.293px" height="26.293px" viewBox="0 0 26.293 26.293" style="enable-background:new 0 0 26.293 26.293;"
	 xml:space="preserve">
<g>
	<path d="M19.256,8.515l-0.479,4.641h-3.687c0,5.888,0,13.137,0,13.137H9.633c0,0,0-7.178,0-13.137H7.037V8.515h2.597V5.511
		C9.634,3.363,10.655,0,15.143,0l4.045,0.017v4.506c0,0-2.459,0-2.936,0c-0.479,0-1.16,0.239-1.16,1.265v2.728L19.256,8.515
		L19.256,8.515z"/>
</g>
<g>
</g>
<g>
</g>
<g>
</g>
<g>
</g>
<g>
</g>
<g>
</g>
<g>
</g>
<g>
</g>
<g>
</g>
<g>
</g>
<g>
</g>
<g>
</g>
<g>
</g>
<g>
</g>
<g>
</g>
</svg>
