<?xml version="1.0" encoding="iso-8859-1"?>
<!-- Generator: Adobe Illustrator 16.0.0, SVG Export Plug-In . SVG Version: 6.00 Build 0)  -->
<!DOCTYPE svg PUBLIC "-//W3C//DTD SVG 1.1//EN" "http://www.w3.org/Graphics/SVG/1.1/DTD/svg11.dtd">
<svg version="1.1" id="Capa_1" xmlns="http://www.w3.org/2000/svg" xmlns:xlink="http://www.w3.org/1999/xlink" x="0px" y="0px"
	 width="30.129px" height="30.129px" viewBox="0 0 30.129 30.129" style="enable-background:new 0 0 30.129 30.129;"
	 xml:space="preserve">
<g>
	<path d="M9.667,12.933c3.79-3.697,6.613-7.017,6.349-9.314C16.107,1.306,13.11,0.017,13.464,0c-0.354,0.018,5.341,1.183,7.95,3.373
		c2.965,2.173,2.838,5.369-0.949,9.068c-3.789,3.696-6.613,7.017-6.349,9.313c-0.091,2.312,2.906,3.604,2.554,3.621
		c0.354-0.018-5.341-1.184-7.952-3.373C5.753,19.829,5.877,16.631,9.667,12.933z M1.564,27.379v2.75h27v-2.75H1.564z"/>
</g>
<g>
</g>
<g>
</g>
<g>
</g>
<g>
</g>
<g>
</g>
<g>
</g>
<g>
</g>
<g>
</g>
<g>
</g>
<g>
</g>
<g>
</g>
<g>
</g>
<g>
</g>
<g>
</g>
<g>
</g>
</svg>
