<?xml version="1.0" encoding="iso-8859-1"?>
<!-- Generator: Adobe Illustrator 16.0.0, SVG Export Plug-In . SVG Version: 6.00 Build 0)  -->
<!DOCTYPE svg PUBLIC "-//W3C//DTD SVG 1.1//EN" "http://www.w3.org/Graphics/SVG/1.1/DTD/svg11.dtd">
<svg version="1.1" id="Capa_1" xmlns="http://www.w3.org/2000/svg" xmlns:xlink="http://www.w3.org/1999/xlink" x="0px" y="0px"
	 width="33.305px" height="33.305px" viewBox="0 0 33.305 33.305" style="enable-background:new 0 0 33.305 33.305;"
	 xml:space="preserve">
<g>
	<path d="M30.707,1.284v4.424c0,0.708-0.574,1.282-1.283,1.282h-5.275c-0.709,0-1.283-0.574-1.283-1.282V4.619h-5.493v3.298h1
		c3.309,0,5.989,2.685,5.989,5.99v19.397H7.814V13.907c0-3.309,2.684-5.99,5.99-5.99h0.998V4.619H9.411l-4.418,7.647
		c-0.236,0.412-0.67,0.643-1.111,0.643c-0.219,0-0.439-0.055-0.643-0.172c-0.613-0.354-0.824-1.141-0.47-1.754l4.787-8.29
		C7.785,2.297,8.209,2.05,8.667,2.05L22.86,2.052V1.283C22.86,0.574,23.435,0,24.144,0h5.276
		C30.131,0.002,30.707,0.575,30.707,1.284z"/>
</g>
<g>
</g>
<g>
</g>
<g>
</g>
<g>
</g>
<g>
</g>
<g>
</g>
<g>
</g>
<g>
</g>
<g>
</g>
<g>
</g>
<g>
</g>
<g>
</g>
<g>
</g>
<g>
</g>
<g>
</g>
</svg>
