<?xml version="1.0" encoding="iso-8859-1"?>
<!-- Generator: Adobe Illustrator 16.0.0, SVG Export Plug-In . SVG Version: 6.00 Build 0)  -->
<!DOCTYPE svg PUBLIC "-//W3C//DTD SVG 1.1//EN" "http://www.w3.org/Graphics/SVG/1.1/DTD/svg11.dtd">
<svg version="1.1" id="Capa_1" xmlns="http://www.w3.org/2000/svg" xmlns:xlink="http://www.w3.org/1999/xlink" x="0px" y="0px"
	 width="31px" height="31px" viewBox="0 0 31 31" style="enable-background:new 0 0 31 31;" xml:space="preserve">
<g>
	<path d="M29.698,6.54c-1.431-0.782-2.931-1.162-4.586-1.162c-2.506,0-4.91,0.886-7.232,1.743c-2.174,0.801-4.227,1.557-6.196,1.557
		c-1.14,0-2.169-0.26-3.147-0.794C8.072,7.631,7.507,7.64,7.052,7.91C6.596,8.18,6.317,8.67,6.317,9.2v12.942
		c0,0.547,0.299,1.053,0.781,1.314c1.43,0.782,2.931,1.162,4.586,1.162c2.506,0,4.908-0.887,7.232-1.743
		c2.174-0.801,4.227-1.558,6.197-1.558c1.141,0,2.168,0.261,3.146,0.793c0.463,0.255,1.029,0.244,1.484-0.024s0.733-0.76,0.733-1.29
		V7.856C30.48,7.308,30.179,6.803,29.698,6.54z M27.48,18.605c-0.758-0.19-1.543-0.285-2.367-0.285
		c-2.506,0-4.909,0.887-7.233,1.744c-2.174,0.801-4.227,1.557-6.196,1.557c-0.841,0-1.622-0.143-2.367-0.43v-9.797
		c0.757,0.191,1.542,0.285,2.367,0.285c2.506,0,4.909-0.886,7.233-1.743c2.172-0.801,4.226-1.557,6.194-1.557
		c0.843,0,1.623,0.142,2.367,0.43v9.796H27.48z M5.147,5.85V29.5c0,0.829-0.671,1.5-1.5,1.5s-1.5-0.671-1.5-1.5V5.851
		C1.183,5.319,0.522,4.305,0.522,3.125C0.522,1.399,1.921,0,3.647,0c1.727,0,3.125,1.399,3.125,3.125
		C6.772,4.304,6.111,5.318,5.147,5.85z"/>
</g>
<g>
</g>
<g>
</g>
<g>
</g>
<g>
</g>
<g>
</g>
<g>
</g>
<g>
</g>
<g>
</g>
<g>
</g>
<g>
</g>
<g>
</g>
<g>
</g>
<g>
</g>
<g>
</g>
<g>
</g>
</svg>
