<?xml version="1.0" encoding="iso-8859-1"?>
<!-- Generator: Adobe Illustrator 16.0.0, SVG Export Plug-In . SVG Version: 6.00 Build 0)  -->
<!DOCTYPE svg PUBLIC "-//W3C//DTD SVG 1.1//EN" "http://www.w3.org/Graphics/SVG/1.1/DTD/svg11.dtd">
<svg version="1.1" id="Capa_1" xmlns="http://www.w3.org/2000/svg" xmlns:xlink="http://www.w3.org/1999/xlink" x="0px" y="0px"
	 width="25.602px" height="25.602px" viewBox="0 0 25.602 25.602" style="enable-background:new 0 0 25.602 25.602;"
	 xml:space="preserve">
<g>
	<path d="M25.537,24.765c-0.089,0.157-0.255,0.253-0.436,0.253H0.5c-0.18,0-0.346-0.097-0.435-0.253
		c-0.088-0.155-0.086-0.349,0.006-0.503l7.952-13.316V2.788H7.964c-0.579,0-1.05-0.494-1.05-1.102c0-0.608,0.471-1.102,1.05-1.102
		h9.611c0.58,0,1.052,0.494,1.052,1.102c0,0.606-0.47,1.1-1.047,1.103v8.157l7.952,13.316
		C25.623,24.416,25.625,24.609,25.537,24.765z"/>
</g>
<g>
</g>
<g>
</g>
<g>
</g>
<g>
</g>
<g>
</g>
<g>
</g>
<g>
</g>
<g>
</g>
<g>
</g>
<g>
</g>
<g>
</g>
<g>
</g>
<g>
</g>
<g>
</g>
<g>
</g>
</svg>
