<?xml version="1.0" encoding="iso-8859-1"?>
<!-- Generator: Adobe Illustrator 16.0.0, SVG Export Plug-In . SVG Version: 6.00 Build 0)  -->
<!DOCTYPE svg PUBLIC "-//W3C//DTD SVG 1.1//EN" "http://www.w3.org/Graphics/SVG/1.1/DTD/svg11.dtd">
<svg version="1.1" id="Capa_1" xmlns="http://www.w3.org/2000/svg" xmlns:xlink="http://www.w3.org/1999/xlink" x="0px" y="0px"
	 width="33.609px" height="33.609px" viewBox="0 0 33.609 33.609" style="enable-background:new 0 0 33.609 33.609;"
	 xml:space="preserve">
<g>
	<path d="M30.826,3.768c2.237,4.049-1,9.866-5.324,14.954c-4.234,4.985-7.699,10.774-8.607,14.888
		c-0.156-0.31-0.934-2.564-1.088-2.869c-0.936-2.185-1.411-2.992-4.492-7.812c-1.227-1.916-3.579-4.771-5.367-7.2
		c-0.9-1.22-1.521-2.354-2.062-3.16C2.092,9.893,1.83,7.168,2.198,5.881c0.495-3.618,2.76-5.213,4.896-5.701
		c2.709-0.359,4.029-0.014,5.318,0.625c2.121,1.049,2.979,2.805,4.433,5.35c1.062-2.418,2.228-4.338,4.11-5.275
		c1.425-0.712,2.605-0.961,5.009-0.857C28.084,0.59,29.846,1.684,30.826,3.768z"/>
</g>
<g>
</g>
<g>
</g>
<g>
</g>
<g>
</g>
<g>
</g>
<g>
</g>
<g>
</g>
<g>
</g>
<g>
</g>
<g>
</g>
<g>
</g>
<g>
</g>
<g>
</g>
<g>
</g>
<g>
</g>
</svg>
