<?xml version="1.0" encoding="iso-8859-1"?>
<!-- Generator: Adobe Illustrator 16.0.0, SVG Export Plug-In . SVG Version: 6.00 Build 0)  -->
<!DOCTYPE svg PUBLIC "-//W3C//DTD SVG 1.1//EN" "http://www.w3.org/Graphics/SVG/1.1/DTD/svg11.dtd">
<svg version="1.1" id="Capa_1" xmlns="http://www.w3.org/2000/svg" xmlns:xlink="http://www.w3.org/1999/xlink" x="0px" y="0px"
	 width="27.669px" height="27.67px" viewBox="0 0 27.669 27.67" style="enable-background:new 0 0 27.669 27.67;"
	 xml:space="preserve">
<g>
	<path d="M15.834,12.71v11.793h5.668c0.828,0,1.5,0.672,1.5,1.5s-0.672,1.5-1.5,1.5H6.168c-0.828,0-1.5-0.672-1.5-1.5
		s0.672-1.5,1.5-1.5h5.666V12.71L0.146,1.021C0.003,0.878-0.04,0.664,0.04,0.476c0.078-0.187,0.26-0.309,0.462-0.309h26.668
		c0.202,0,0.385,0.122,0.462,0.309c0.077,0.188,0.034,0.402-0.107,0.545L15.834,12.71z"/>
</g>
<g>
</g>
<g>
</g>
<g>
</g>
<g>
</g>
<g>
</g>
<g>
</g>
<g>
</g>
<g>
</g>
<g>
</g>
<g>
</g>
<g>
</g>
<g>
</g>
<g>
</g>
<g>
</g>
<g>
</g>
</svg>
