<?xml version="1.0" encoding="iso-8859-1"?>
<!-- Generator: Adobe Illustrator 16.0.0, SVG Export Plug-In . SVG Version: 6.00 Build 0)  -->
<!DOCTYPE svg PUBLIC "-//W3C//DTD SVG 1.1//EN" "http://www.w3.org/Graphics/SVG/1.1/DTD/svg11.dtd">
<svg version="1.1" id="Capa_1" xmlns="http://www.w3.org/2000/svg" xmlns:xlink="http://www.w3.org/1999/xlink" x="0px" y="0px"
	 width="32.332px" height="32.332px" viewBox="0 0 32.332 32.332" style="enable-background:new 0 0 32.332 32.332;"
	 xml:space="preserve">
<g>
	<path d="M32.332,0.332v5H9.271v-5H32.332L32.332,0.332z M9.271,14.221h23.061v-5H9.271V14.221z M9.271,23.109h23.061v-5H9.271
		V23.109z M9.271,32h23.061v-5H9.271V32z M0,5.332h4.65v-5H0V5.332z M0,14.221h4.65v-5H0V14.221z M0,23.109h4.65v-5H0V23.109z M0,32
		h4.65v-5H0V32z"/>
</g>
<g>
</g>
<g>
</g>
<g>
</g>
<g>
</g>
<g>
</g>
<g>
</g>
<g>
</g>
<g>
</g>
<g>
</g>
<g>
</g>
<g>
</g>
<g>
</g>
<g>
</g>
<g>
</g>
<g>
</g>
</svg>
