<?xml version="1.0" encoding="iso-8859-1"?>
<!-- Generator: Adobe Illustrator 16.0.0, SVG Export Plug-In . SVG Version: 6.00 Build 0)  -->
<!DOCTYPE svg PUBLIC "-//W3C//DTD SVG 1.1//EN" "http://www.w3.org/Graphics/SVG/1.1/DTD/svg11.dtd">
<svg version="1.1" id="Capa_1" xmlns="http://www.w3.org/2000/svg" xmlns:xlink="http://www.w3.org/1999/xlink" x="0px" y="0px"
	 width="34.918px" height="34.918px" viewBox="0 0 34.918 34.918" style="enable-background:new 0 0 34.918 34.918;"
	 xml:space="preserve">
<g>
	<path d="M26.834,10.375h-3v-4C23.834,2.86,20.975,0,17.459,0c-3.516,0-6.375,2.86-6.375,6.375v4h-3c-0.552,0-1,0.448-1,1v4.5
		c0,5.253,3.93,9.598,9.002,10.273c-0.081,0.184-0.127,0.387-0.127,0.602v5.168h-4c-0.829,0-1.5,0.67-1.5,1.5
		c0,0.828,0.671,1.5,1.5,1.5h11c0.828,0,1.5-0.672,1.5-1.5c0-0.83-0.672-1.5-1.5-1.5h-4V26.75c0-0.213-0.047-0.416-0.127-0.602
		c5.072-0.676,9.002-5.021,9.002-10.273v-4.5C27.834,10.821,27.386,10.375,26.834,10.375z M25.834,15.875
		c0,4.619-3.758,8.375-8.375,8.375c-4.618,0-8.375-3.756-8.375-8.375v-3.5h2v3.5c0,3.516,2.859,6.375,6.375,6.375
		c3.516,0,6.375-2.859,6.375-6.375v-3.5h2V15.875z"/>
</g>
<g>
</g>
<g>
</g>
<g>
</g>
<g>
</g>
<g>
</g>
<g>
</g>
<g>
</g>
<g>
</g>
<g>
</g>
<g>
</g>
<g>
</g>
<g>
</g>
<g>
</g>
<g>
</g>
<g>
</g>
</svg>
