<?xml version="1.0" encoding="iso-8859-1"?>
<!-- Generator: Adobe Illustrator 16.0.0, SVG Export Plug-In . SVG Version: 6.00 Build 0)  -->
<!DOCTYPE svg PUBLIC "-//W3C//DTD SVG 1.1//EN" "http://www.w3.org/Graphics/SVG/1.1/DTD/svg11.dtd">
<svg version="1.1" id="Capa_1" xmlns="http://www.w3.org/2000/svg" xmlns:xlink="http://www.w3.org/1999/xlink" x="0px" y="0px"
	 width="26.363px" height="26.363px" viewBox="0 0 26.363 26.363" style="enable-background:new 0 0 26.363 26.363;"
	 xml:space="preserve">
<g>
	<path d="M24.363,26.363H2.001c-1.104,0-2-0.896-2-2V2c0-1.104,0.896-2,2-2h22.361c1.104,0,2,0.896,2,2v22.361
		C26.363,25.467,25.468,26.363,24.363,26.363z M4.001,22.363h18.361V4H4.001V22.363z M20.017,13.182c0-1.104-0.896-1.999-2-1.999
		H8.349c-1.104,0-2,0.896-2,1.999c0,1.105,0.896,2,2,2h9.667C19.12,15.182,20.017,14.287,20.017,13.182z"/>
</g>
<g>
</g>
<g>
</g>
<g>
</g>
<g>
</g>
<g>
</g>
<g>
</g>
<g>
</g>
<g>
</g>
<g>
</g>
<g>
</g>
<g>
</g>
<g>
</g>
<g>
</g>
<g>
</g>
<g>
</g>
</svg>
