<?xml version="1.0" encoding="iso-8859-1"?>
<!-- Generator: Adobe Illustrator 16.0.0, SVG Export Plug-In . SVG Version: 6.00 Build 0)  -->
<!DOCTYPE svg PUBLIC "-//W3C//DTD SVG 1.1//EN" "http://www.w3.org/Graphics/SVG/1.1/DTD/svg11.dtd">
<svg version="1.1" id="Capa_1" xmlns="http://www.w3.org/2000/svg" xmlns:xlink="http://www.w3.org/1999/xlink" x="0px" y="0px"
	 width="37px" height="37px" viewBox="0 0 37 37" style="enable-background:new 0 0 37 37;" xml:space="preserve">
<g>
	<path d="M35.5,7.75h-34C0.672,7.75,0,8.421,0,9.25v18.5c0,0.829,0.672,1.5,1.5,1.5h34c0.829,0,1.5-0.671,1.5-1.5V9.25
		C37,8.421,36.329,7.75,35.5,7.75z M34,20.375c-2.697,0.8-4.759,3.064-5.271,5.875H9.187C8.621,23.13,6.138,20.686,3,20.17v-3.338
		c3.139-0.517,5.619-2.961,6.187-6.082h19.545c0.51,2.811,2.57,5.076,5.27,5.876L34,20.375L34,20.375z M19.646,18.016h-0.018v-2.77
		c0.205,0.015,0.409,0.063,0.582,0.11c0.27,0.094,0.314,0.204,0.314,0.487v0.849l1.541-0.094V14.38
		c-0.771-0.362-1.59-0.551-2.438-0.598v-1.416h-1.181v1.447c-1.668,0.236-2.752,1.29-2.752,2.863c0,1.825,1.306,2.438,2.752,2.832
		v2.942c-0.313,0-0.612-0.048-0.834-0.125c-0.268-0.095-0.313-0.205-0.313-0.488v-0.912l-1.557,0.11v2.344
		c0.817,0.377,1.667,0.566,2.704,0.598v1.573h1.181v-1.62c1.668-0.252,2.85-1.272,2.85-2.974
		C22.479,19.053,21.027,18.439,19.646,18.016z M18.448,17.606c-0.504-0.235-0.817-0.535-0.817-1.101c0-0.63,0.313-0.992,0.817-1.165
		V17.606z M19.629,22.341v-2.454c0.535,0.221,0.896,0.551,0.896,1.148C20.525,21.775,20.164,22.168,19.629,22.341z"/>
</g>
<g>
</g>
<g>
</g>
<g>
</g>
<g>
</g>
<g>
</g>
<g>
</g>
<g>
</g>
<g>
</g>
<g>
</g>
<g>
</g>
<g>
</g>
<g>
</g>
<g>
</g>
<g>
</g>
<g>
</g>
</svg>
