<?xml version="1.0" encoding="iso-8859-1"?>
<!-- Generator: Adobe Illustrator 16.0.0, SVG Export Plug-In . SVG Version: 6.00 Build 0)  -->
<!DOCTYPE svg PUBLIC "-//W3C//DTD SVG 1.1//EN" "http://www.w3.org/Graphics/SVG/1.1/DTD/svg11.dtd">
<svg version="1.1" id="Capa_1" xmlns="http://www.w3.org/2000/svg" xmlns:xlink="http://www.w3.org/1999/xlink" x="0px" y="0px"
	 width="30.84px" height="30.84px" viewBox="0 0 30.84 30.84" style="enable-background:new 0 0 30.84 30.84;" xml:space="preserve"
	>
<g>
	<path d="M30.457,21.764c-2.525,5.359-7.962,9.076-14.279,9.076c-8.724,0-15.795-7.07-15.795-15.795
		C0.383,7.998,5.002,2.033,11.375,0c-0.962,2.039-1.516,4.311-1.516,6.717c0,8.725,7.071,15.795,15.795,15.795
		C27.33,22.512,28.943,22.246,30.457,21.764z"/>
</g>
<g>
</g>
<g>
</g>
<g>
</g>
<g>
</g>
<g>
</g>
<g>
</g>
<g>
</g>
<g>
</g>
<g>
</g>
<g>
</g>
<g>
</g>
<g>
</g>
<g>
</g>
<g>
</g>
<g>
</g>
</svg>
