<?xml version="1.0" encoding="iso-8859-1"?>
<!-- Generator: Adobe Illustrator 16.0.0, SVG Export Plug-In . SVG Version: 6.00 Build 0)  -->
<!DOCTYPE svg PUBLIC "-//W3C//DTD SVG 1.1//EN" "http://www.w3.org/Graphics/SVG/1.1/DTD/svg11.dtd">
<svg version="1.1" id="Capa_1" xmlns="http://www.w3.org/2000/svg" xmlns:xlink="http://www.w3.org/1999/xlink" x="0px" y="0px"
	 width="41.143px" height="41.143px" viewBox="0 0 41.143 41.143" style="enable-background:new 0 0 41.143 41.143;"
	 xml:space="preserve">
<g>
	<path d="M23.57,23.571v7.433l5-0.002l-8,10.14l-8-10.137l5-0.002v-7.432H10.14v5l-10.14-8l10.139-8v5h7.432v-7.431l-5,0.001
		l8-10.141l8,10.138l-5,0.001v7.432h7.432l-0.001-5l10.142,8l-10.139,8v-5H23.57z"/>
</g>
<g>
</g>
<g>
</g>
<g>
</g>
<g>
</g>
<g>
</g>
<g>
</g>
<g>
</g>
<g>
</g>
<g>
</g>
<g>
</g>
<g>
</g>
<g>
</g>
<g>
</g>
<g>
</g>
<g>
</g>
</svg>
