<?xml version="1.0" encoding="iso-8859-1"?>
<!-- Generator: Adobe Illustrator 16.0.0, SVG Export Plug-In . SVG Version: 6.00 Build 0)  -->
<!DOCTYPE svg PUBLIC "-//W3C//DTD SVG 1.1//EN" "http://www.w3.org/Graphics/SVG/1.1/DTD/svg11.dtd">
<svg version="1.1" id="Capa_1" xmlns="http://www.w3.org/2000/svg" xmlns:xlink="http://www.w3.org/1999/xlink" x="0px" y="0px"
	 width="25.362px" height="25.362px" viewBox="0 0 25.362 25.362" style="enable-background:new 0 0 25.362 25.362;"
	 xml:space="preserve">
<g>
	<path d="M23.861,25.362H1.501c-0.828,0-1.5-0.671-1.5-1.5V1.5c0-0.829,0.672-1.5,1.5-1.5h22.36c0.827,0,1.5,0.671,1.5,1.5v22.361
		C25.361,24.691,24.688,25.362,23.861,25.362z M3,22.362h19.361V3H3V22.362L3,22.362z M18.384,12.709L7.342,5.395l-0.071,14.52
		L18.384,12.709z"/>
</g>
<g>
</g>
<g>
</g>
<g>
</g>
<g>
</g>
<g>
</g>
<g>
</g>
<g>
</g>
<g>
</g>
<g>
</g>
<g>
</g>
<g>
</g>
<g>
</g>
<g>
</g>
<g>
</g>
<g>
</g>
</svg>
