<?xml version="1.0" encoding="iso-8859-1"?>
<!-- Generator: Adobe Illustrator 16.0.0, SVG Export Plug-In . SVG Version: 6.00 Build 0)  -->
<!DOCTYPE svg PUBLIC "-//W3C//DTD SVG 1.1//EN" "http://www.w3.org/Graphics/SVG/1.1/DTD/svg11.dtd">
<svg version="1.1" id="Capa_1" xmlns="http://www.w3.org/2000/svg" xmlns:xlink="http://www.w3.org/1999/xlink" x="0px" y="0px"
	 width="31.141px" height="31.141px" viewBox="0 0 31.141 31.141" style="enable-background:new 0 0 31.141 31.141;"
	 xml:space="preserve">
<g>
	<path d="M28.237,12.738h-1.384V1.5c0-0.829-0.673-1.5-1.5-1.5H5.787c-0.829,0-1.5,0.671-1.5,1.5v11.238H2.903
		c-0.829,0-1.5,0.671-1.5,1.5v9.334c0,0.828,0.671,1.5,1.5,1.5h1.384v4.568c0,0.83,0.671,1.5,1.5,1.5h19.566
		c0.827,0,1.5-0.67,1.5-1.5v-4.568h1.384c0.829,0,1.5-0.672,1.5-1.5v-9.334C29.737,13.409,29.066,12.738,28.237,12.738z M7.287,3
		H19.82v3.571h4.033v6.167H7.287V3z M23.854,28.141H7.287v-3.068h16.566V28.141z"/>
</g>
<g>
</g>
<g>
</g>
<g>
</g>
<g>
</g>
<g>
</g>
<g>
</g>
<g>
</g>
<g>
</g>
<g>
</g>
<g>
</g>
<g>
</g>
<g>
</g>
<g>
</g>
<g>
</g>
<g>
</g>
</svg>
