<?xml version="1.0" encoding="iso-8859-1"?>
<!-- Generator: Adobe Illustrator 16.0.0, SVG Export Plug-In . SVG Version: 6.00 Build 0)  -->
<!DOCTYPE svg PUBLIC "-//W3C//DTD SVG 1.1//EN" "http://www.w3.org/Graphics/SVG/1.1/DTD/svg11.dtd">
<svg version="1.1" id="Capa_1" xmlns="http://www.w3.org/2000/svg" xmlns:xlink="http://www.w3.org/1999/xlink" x="0px" y="0px"
	 width="34.547px" height="34.547px" viewBox="0 0 34.547 34.547" style="enable-background:new 0 0 34.547 34.547;"
	 xml:space="preserve">
<g>
	<path d="M4.07,28.295C1.356,25.07,0,21.357,0,17.16c0-2.803,0.626-5.424,1.878-7.86S4.851,4.843,7.04,3.238
		c2.188-1.604,4.625-2.633,7.311-3.082v10.908c0,3.778-0.948,7.225-2.846,10.336C9.607,24.514,7.13,26.811,4.07,28.295z
		 M20.186,27.531c-1.463-1.859-2.456-3.869-2.98-6.027c-0.51,2.158-1.496,4.168-2.958,6.027s-3.228,3.441-5.297,4.744
		c2.564,1.41,5.315,2.115,8.255,2.115c2.955,0,5.712-0.705,8.277-2.115C23.413,30.973,21.649,29.391,20.186,27.531z M32.67,9.3
		c-1.252-2.437-2.975-4.457-5.162-6.062s-4.627-2.633-7.311-3.082v10.908c0,3.778,0.947,7.225,2.846,10.336
		c1.896,3.111,4.375,5.408,7.436,6.895c2.715-3.225,4.068-6.938,4.068-11.135C34.547,14.358,33.92,11.737,32.67,9.3z"/>
</g>
<g>
</g>
<g>
</g>
<g>
</g>
<g>
</g>
<g>
</g>
<g>
</g>
<g>
</g>
<g>
</g>
<g>
</g>
<g>
</g>
<g>
</g>
<g>
</g>
<g>
</g>
<g>
</g>
<g>
</g>
</svg>
