<?xml version="1.0" encoding="iso-8859-1"?>
<!-- Generator: Adobe Illustrator 16.0.0, SVG Export Plug-In . SVG Version: 6.00 Build 0)  -->
<!DOCTYPE svg PUBLIC "-//W3C//DTD SVG 1.1//EN" "http://www.w3.org/Graphics/SVG/1.1/DTD/svg11.dtd">
<svg version="1.1" id="Capa_1" xmlns="http://www.w3.org/2000/svg" xmlns:xlink="http://www.w3.org/1999/xlink" x="0px" y="0px"
	 width="29.75px" height="29.75px" viewBox="0 0 29.75 29.75" style="enable-background:new 0 0 29.75 29.75;" xml:space="preserve"
	>
<g>
	<path d="M28.25,0H1.5C0.671,0,0,0.672,0,1.5v26.75c0,0.828,0.671,1.5,1.5,1.5h26.75c0.829,0,1.5-0.672,1.5-1.5V1.5
		C29.75,0.672,29.079,0,28.25,0z M26.75,26.75H3v-3.125h23.75V26.75z M9,16.125c0-3.244,2.63-5.875,5.875-5.875
		s5.875,2.631,5.875,5.875S18.12,22,14.875,22S9,19.369,9,16.125z M26.75,8.625H3V3h23.75V8.625z M10.125,6.875h-5.25v-2h5.25V6.875
		z"/>
</g>
<g>
</g>
<g>
</g>
<g>
</g>
<g>
</g>
<g>
</g>
<g>
</g>
<g>
</g>
<g>
</g>
<g>
</g>
<g>
</g>
<g>
</g>
<g>
</g>
<g>
</g>
<g>
</g>
<g>
</g>
</svg>
