<?xml version="1.0" encoding="iso-8859-1"?>
<!-- Generator: Adobe Illustrator 16.0.0, SVG Export Plug-In . SVG Version: 6.00 Build 0)  -->
<!DOCTYPE svg PUBLIC "-//W3C//DTD SVG 1.1//EN" "http://www.w3.org/Graphics/SVG/1.1/DTD/svg11.dtd">
<svg version="1.1" id="Capa_1" xmlns="http://www.w3.org/2000/svg" xmlns:xlink="http://www.w3.org/1999/xlink" x="0px" y="0px"
	 width="31.334px" height="31.334px" viewBox="0 0 31.334 31.334" style="enable-background:new 0 0 31.334 31.334;"
	 xml:space="preserve">
<g>
	<path d="M25.478,15.667l-7.381,7.378c-0.391,0.393-0.9,0.587-1.412,0.587c-0.514,0-1.023-0.194-1.415-0.587
		c-0.781-0.779-0.781-2.047,0-2.827l2.549-2.551H8.687c-1.104,0-2-0.896-2-2c0-1.104,0.896-2,2-2h9.13l-2.55-2.552
		c-0.781-0.781-0.781-2.047,0-2.828c0.78-0.781,2.046-0.781,2.827,0L25.478,15.667z M31.333,15.667
		c0,8.64-7.027,15.667-15.666,15.667c-8.64,0-15.666-7.027-15.666-15.667C0.001,7.028,7.027,0,15.667,0
		C24.306,0,31.333,7.028,31.333,15.667z M27.333,15.667c0-6.433-5.232-11.666-11.666-11.666c-6.433,0-11.666,5.232-11.666,11.666
		c0,6.435,5.233,11.666,11.666,11.666C22.101,27.333,27.333,22.102,27.333,15.667z"/>
</g>
<g>
</g>
<g>
</g>
<g>
</g>
<g>
</g>
<g>
</g>
<g>
</g>
<g>
</g>
<g>
</g>
<g>
</g>
<g>
</g>
<g>
</g>
<g>
</g>
<g>
</g>
<g>
</g>
<g>
</g>
</svg>
