<?xml version="1.0" encoding="iso-8859-1"?>
<!-- Generator: Adobe Illustrator 16.0.0, SVG Export Plug-In . SVG Version: 6.00 Build 0)  -->
<!DOCTYPE svg PUBLIC "-//W3C//DTD SVG 1.1//EN" "http://www.w3.org/Graphics/SVG/1.1/DTD/svg11.dtd">
<svg version="1.1" id="Capa_1" xmlns="http://www.w3.org/2000/svg" xmlns:xlink="http://www.w3.org/1999/xlink" x="0px" y="0px"
	 width="24.222px" height="24.222px" viewBox="0 0 24.222 24.222" style="enable-background:new 0 0 24.222 24.222;"
	 xml:space="preserve">
<g>
	<path d="M21.941,0.499v23.222c0,0.183-0.1,0.351-0.258,0.438c-0.076,0.042-0.159,0.062-0.242,0.062
		c-0.092,0-0.186-0.024-0.266-0.076l-8.106-5.084H2.781c-0.275,0-0.5-0.225-0.5-0.5V5.66c0-0.276,0.225-0.5,0.5-0.5h11.191
		l7.18-5.069c0.152-0.107,0.354-0.121,0.52-0.035C21.837,0.14,21.941,0.312,21.941,0.499z"/>
</g>
<g>
</g>
<g>
</g>
<g>
</g>
<g>
</g>
<g>
</g>
<g>
</g>
<g>
</g>
<g>
</g>
<g>
</g>
<g>
</g>
<g>
</g>
<g>
</g>
<g>
</g>
<g>
</g>
<g>
</g>
</svg>
