<?xml version="1.0" encoding="iso-8859-1"?>
<!-- Generator: Adobe Illustrator 16.0.0, SVG Export Plug-In . SVG Version: 6.00 Build 0)  -->
<!DOCTYPE svg PUBLIC "-//W3C//DTD SVG 1.1//EN" "http://www.w3.org/Graphics/SVG/1.1/DTD/svg11.dtd">
<svg version="1.1" id="Capa_1" xmlns="http://www.w3.org/2000/svg" xmlns:xlink="http://www.w3.org/1999/xlink" x="0px" y="0px"
	 width="28.332px" height="28.332px" viewBox="0 0 28.332 28.332" style="enable-background:new 0 0 28.332 28.332;"
	 xml:space="preserve">
<g>
	<path d="M26.332,0H2C0.896,0,0,0.896,0,2v24.332c0,1.104,0.896,2,2,2h24.332c1.104,0,2-0.896,2-2V2C28.332,0.895,27.438,0,26.332,0
		z M24.332,24.332H4V4h20.332V24.332z"/>
</g>
<g>
</g>
<g>
</g>
<g>
</g>
<g>
</g>
<g>
</g>
<g>
</g>
<g>
</g>
<g>
</g>
<g>
</g>
<g>
</g>
<g>
</g>
<g>
</g>
<g>
</g>
<g>
</g>
<g>
</g>
</svg>
