<?xml version="1.0" encoding="iso-8859-1"?>
<!-- Generator: Adobe Illustrator 16.0.0, SVG Export Plug-In . SVG Version: 6.00 Build 0)  -->
<!DOCTYPE svg PUBLIC "-//W3C//DTD SVG 1.1//EN" "http://www.w3.org/Graphics/SVG/1.1/DTD/svg11.dtd">
<svg version="1.1" id="Capa_1" xmlns="http://www.w3.org/2000/svg" xmlns:xlink="http://www.w3.org/1999/xlink" x="0px" y="0px"
	 width="26.361px" height="26.361px" viewBox="0 0 26.361 26.361" style="enable-background:new 0 0 26.361 26.361;"
	 xml:space="preserve">
<g>
	<path d="M24.362,0H2C0.896,0,0,0.896,0,2v22.36c0,1.104,0.896,2.001,2,2.001h22.361c1.104,0,2-0.896,2-2.001V2
		C26.362,0.896,25.467,0,24.362,0z M22.362,22.362H4V4h18.361L22.362,22.362L22.362,22.362z"/>
</g>
<g>
</g>
<g>
</g>
<g>
</g>
<g>
</g>
<g>
</g>
<g>
</g>
<g>
</g>
<g>
</g>
<g>
</g>
<g>
</g>
<g>
</g>
<g>
</g>
<g>
</g>
<g>
</g>
<g>
</g>
</svg>
