<?xml version="1.0" encoding="iso-8859-1"?>
<!-- Generator: Adobe Illustrator 16.0.0, SVG Export Plug-In . SVG Version: 6.00 Build 0)  -->
<!DOCTYPE svg PUBLIC "-//W3C//DTD SVG 1.1//EN" "http://www.w3.org/Graphics/SVG/1.1/DTD/svg11.dtd">
<svg version="1.1" id="Capa_1" xmlns="http://www.w3.org/2000/svg" xmlns:xlink="http://www.w3.org/1999/xlink" x="0px" y="0px"
	 width="31.166px" height="31.166px" viewBox="0 0 31.166 31.166" style="enable-background:new 0 0 31.166 31.166;"
	 xml:space="preserve">
<g>
	<path d="M26.765,0H4.402c-0.829,0-1.5,0.671-1.5,1.5v22.361c0,0.828,0.671,1.5,1.5,1.5h14.321l5.804,5.805v-5.805h2.236
		c0.828,0,1.5-0.672,1.5-1.5V1.5C28.265,0.671,27.592,0,26.765,0z M25.265,3v3.167H5.902V3H25.265z M5.901,11.68V8.166h19.362v3.514
		H5.901z M25.265,13.68v3.515H5.902V13.68H25.265z M5.901,22.359v-3.166h19.362v3.166H5.901z"/>
</g>
<g>
</g>
<g>
</g>
<g>
</g>
<g>
</g>
<g>
</g>
<g>
</g>
<g>
</g>
<g>
</g>
<g>
</g>
<g>
</g>
<g>
</g>
<g>
</g>
<g>
</g>
<g>
</g>
<g>
</g>
</svg>
