<?xml version="1.0" encoding="iso-8859-1"?>
<!-- Generator: Adobe Illustrator 16.0.0, SVG Export Plug-In . SVG Version: 6.00 Build 0)  -->
<!DOCTYPE svg PUBLIC "-//W3C//DTD SVG 1.1//EN" "http://www.w3.org/Graphics/SVG/1.1/DTD/svg11.dtd">
<svg version="1.1" id="Capa_1" xmlns="http://www.w3.org/2000/svg" xmlns:xlink="http://www.w3.org/1999/xlink" x="0px" y="0px"
	 width="31.668px" height="31.668px" viewBox="0 0 31.668 31.668" style="enable-background:new 0 0 31.668 31.668;"
	 xml:space="preserve">
<g>
	<path d="M15.835,0C7.089,0,0.001,7.09,0.001,15.834s7.088,15.834,15.834,15.834c8.743,0,15.832-7.09,15.832-15.834
		S24.578,0,15.835,0z M22.167,22.168H9.501V9.5h12.666V22.168L22.167,22.168z"/>
</g>
<g>
</g>
<g>
</g>
<g>
</g>
<g>
</g>
<g>
</g>
<g>
</g>
<g>
</g>
<g>
</g>
<g>
</g>
<g>
</g>
<g>
</g>
<g>
</g>
<g>
</g>
<g>
</g>
<g>
</g>
</svg>
