<?xml version="1.0" encoding="iso-8859-1"?>
<!-- Generator: Adobe Illustrator 16.0.0, SVG Export Plug-In . SVG Version: 6.00 Build 0)  -->
<!DOCTYPE svg PUBLIC "-//W3C//DTD SVG 1.1//EN" "http://www.w3.org/Graphics/SVG/1.1/DTD/svg11.dtd">
<svg version="1.1" id="Capa_1" xmlns="http://www.w3.org/2000/svg" xmlns:xlink="http://www.w3.org/1999/xlink" x="0px" y="0px"
	 width="30.403px" height="30.402px" viewBox="0 0 30.403 30.402" style="enable-background:new 0 0 30.403 30.402;"
	 xml:space="preserve">
<g>
	<path d="M21.485,20.853c4.918,0,8.918-4,8.918-8.918c0-1.097-0.203-2.18-0.605-3.221c-0.225-0.577-0.779-0.958-1.398-0.958h-2.26
		c0.029-0.343,0.053-0.69,0.053-1.042c0-2.003-0.545-3.876-1.48-5.494H5.692c-0.937,1.617-1.48,3.49-1.48,5.494
		c0,0.352,0.021,0.699,0.054,1.042H2.005c-0.618,0-1.175,0.381-1.398,0.958C0.204,9.754,0,10.837,0,11.935
		c0,4.917,4,8.918,8.918,8.918c1.553,0,3.013-0.398,4.284-1.102v5.432H8.506c-1.104,0-2,0.896-2,2s0.896,2,2,2h13.395
		c1.104,0,2-0.896,2-2s-0.896-2-2-2h-4.697v-5.432C18.473,20.454,19.934,20.853,21.485,20.853z M27.282,10.757
		c0.082,0.389,0.121,0.783,0.121,1.179c0,3.263-2.654,5.918-5.918,5.918c-1.02,0-1.979-0.259-2.818-0.715
		c3.084-1.024,5.559-3.376,6.746-6.381L27.282,10.757L27.282,10.757z M2.998,11.935c0-0.396,0.041-0.79,0.121-1.179h1.869
		c1.19,3.005,3.662,5.356,6.746,6.381c-0.838,0.456-1.799,0.715-2.818,0.715C5.653,17.853,2.998,15.2,2.998,11.935z"/>
</g>
<g>
</g>
<g>
</g>
<g>
</g>
<g>
</g>
<g>
</g>
<g>
</g>
<g>
</g>
<g>
</g>
<g>
</g>
<g>
</g>
<g>
</g>
<g>
</g>
<g>
</g>
<g>
</g>
<g>
</g>
</svg>
