<?xml version="1.0" encoding="iso-8859-1"?>
<!-- Generator: Adobe Illustrator 16.0.0, SVG Export Plug-In . SVG Version: 6.00 Build 0)  -->
<!DOCTYPE svg PUBLIC "-//W3C//DTD SVG 1.1//EN" "http://www.w3.org/Graphics/SVG/1.1/DTD/svg11.dtd">
<svg version="1.1" id="Capa_1" xmlns="http://www.w3.org/2000/svg" xmlns:xlink="http://www.w3.org/1999/xlink" x="0px" y="0px"
	 width="30.101px" height="30.102px" viewBox="0 0 30.101 30.102" style="enable-background:new 0 0 30.101 30.102;"
	 xml:space="preserve">
<g>
	<path d="M24.313,28.246c0,0.154-0.041,0.23-0.187,0.301c-2.326,1.117-4.771,1.661-7.354,1.537
		c-1.592-0.077-3.122-0.395-4.528-1.182c-0.612-0.344-1.158-0.772-1.653-1.271c-0.884-0.884-1.327-1.962-1.421-3.192
		c-0.043-0.57-0.073-1.144-0.074-1.715c-0.007-3.347-0.003-6.695-0.003-10.042c0-0.101,0-0.202,0-0.342c-1.113,0-2.19,0-3.287,0
		c-0.005-0.098-0.013-0.174-0.013-0.251c0-1.277,0.002-2.556-0.004-3.833c0-0.146,0.035-0.222,0.183-0.273
		c3.151-1.107,5.005-3.342,5.688-6.583c0.049-0.229,0.094-0.461,0.133-0.692C11.832,0.478,11.863,0.245,11.9,0
		c1.414,0,2.822,0,4.26,0c0,2.526,0,5.053,0,7.602c2.393,0,4.756,0,7.141,0c0,1.585,0,3.147,0,4.732c-2.365,0-4.729,0-7.108,0
		c-0.013,0.079-0.021,0.139-0.021,0.198c0.002,2.837-0.004,5.677,0.012,8.515c0.004,0.617,0.07,1.234,0.139,1.852
		c0.082,0.741,0.475,1.295,1.107,1.687c0.938,0.577,1.963,0.698,3.033,0.592c1.297-0.13,2.475-0.601,3.575-1.278
		c0.076-0.048,0.156-0.094,0.271-0.162c0,0.092,0,0.151,0,0.211C24.308,25.377,24.306,26.811,24.313,28.246z"/>
</g>
<g>
</g>
<g>
</g>
<g>
</g>
<g>
</g>
<g>
</g>
<g>
</g>
<g>
</g>
<g>
</g>
<g>
</g>
<g>
</g>
<g>
</g>
<g>
</g>
<g>
</g>
<g>
</g>
<g>
</g>
</svg>
