<?xml version="1.0" encoding="iso-8859-1"?>
<!-- Generator: Adobe Illustrator 16.0.0, SVG Export Plug-In . SVG Version: 6.00 Build 0)  -->
<!DOCTYPE svg PUBLIC "-//W3C//DTD SVG 1.1//EN" "http://www.w3.org/Graphics/SVG/1.1/DTD/svg11.dtd">
<svg version="1.1" id="Capa_1" xmlns="http://www.w3.org/2000/svg" xmlns:xlink="http://www.w3.org/1999/xlink" x="0px" y="0px"
	 width="33.277px" height="33.277px" viewBox="0 0 33.277 33.277" style="enable-background:new 0 0 33.277 33.277;"
	 xml:space="preserve">
<g>
	<path d="M33.277,9.412v3.894c0,1.104-0.896,2-2,2c-1.105,0-2-0.896-2-2V9.412c0-2.424-1.975-4.396-4.396-4.396h-1.521
		c-2.428,0-4.398,1.972-4.398,4.396v3.961h3.588v18.889H0V13.373h14.957V9.412c0-4.63,3.767-8.396,8.396-8.396h1.523
		C29.509,1.016,33.277,4.783,33.277,9.412z"/>
</g>
<g>
</g>
<g>
</g>
<g>
</g>
<g>
</g>
<g>
</g>
<g>
</g>
<g>
</g>
<g>
</g>
<g>
</g>
<g>
</g>
<g>
</g>
<g>
</g>
<g>
</g>
<g>
</g>
<g>
</g>
</svg>
