<?xml version="1.0" encoding="iso-8859-1"?>
<!-- Generator: Adobe Illustrator 16.0.0, SVG Export Plug-In . SVG Version: 6.00 Build 0)  -->
<!DOCTYPE svg PUBLIC "-//W3C//DTD SVG 1.1//EN" "http://www.w3.org/Graphics/SVG/1.1/DTD/svg11.dtd">
<svg version="1.1" id="Capa_1" xmlns="http://www.w3.org/2000/svg" xmlns:xlink="http://www.w3.org/1999/xlink" x="0px" y="0px"
	 width="30.594px" height="30.594px" viewBox="0 0 30.594 30.594" style="enable-background:new 0 0 30.594 30.594;"
	 xml:space="preserve">
<g>
	<path d="M22.886,30.594H7.708c-2.087,0-3.514-1.684-3.171-3.74l1.6-9.592c0.289-1.734,1.752-3.191,3.454-3.609
		c1.521,1.347,3.516,2.17,5.706,2.17c2.19,0,4.186-0.823,5.706-2.17c1.702,0.418,3.165,1.875,3.454,3.609l1.6,9.592
		C26.4,28.91,24.972,30.594,22.886,30.594z M15.297,14.392c3.975,0,7.196-3.221,7.196-7.196C22.493,3.222,19.271,0,15.297,0
		c-3.973,0-7.196,3.223-7.196,7.195C8.1,11.173,11.323,14.392,15.297,14.392z"/>
</g>
<g>
</g>
<g>
</g>
<g>
</g>
<g>
</g>
<g>
</g>
<g>
</g>
<g>
</g>
<g>
</g>
<g>
</g>
<g>
</g>
<g>
</g>
<g>
</g>
<g>
</g>
<g>
</g>
<g>
</g>
</svg>
