<?xml version="1.0" encoding="iso-8859-1"?>
<!-- Generator: Adobe Illustrator 16.0.0, SVG Export Plug-In . SVG Version: 6.00 Build 0)  -->
<!DOCTYPE svg PUBLIC "-//W3C//DTD SVG 1.1//EN" "http://www.w3.org/Graphics/SVG/1.1/DTD/svg11.dtd">
<svg version="1.1" id="Capa_1" xmlns="http://www.w3.org/2000/svg" xmlns:xlink="http://www.w3.org/1999/xlink" x="0px" y="0px"
	 width="32px" height="32px" viewBox="0 0 32 32" style="enable-background:new 0 0 32 32;" xml:space="preserve">
<g>
	<path d="M32,5.074v21.854c0,0.189-0.107,0.365-0.279,0.449c-0.068,0.033-0.146,0.051-0.221,0.051c-0.107,0-0.216-0.033-0.307-0.104
		l-7.939-6.121v3.129c0,0.277-0.225,0.5-0.5,0.5H0.5c-0.275,0-0.5-0.223-0.5-0.5V7.667c0-0.275,0.225-0.5,0.5-0.5h22.254
		c0.275,0,0.5,0.225,0.5,0.5v3.899l7.918-6.872c0.146-0.128,0.354-0.158,0.537-0.078C31.885,4.7,32,4.877,32,5.074z"/>
</g>
<g>
</g>
<g>
</g>
<g>
</g>
<g>
</g>
<g>
</g>
<g>
</g>
<g>
</g>
<g>
</g>
<g>
</g>
<g>
</g>
<g>
</g>
<g>
</g>
<g>
</g>
<g>
</g>
<g>
</g>
</svg>
