<?xml version="1.0" encoding="iso-8859-1"?>
<!-- Generator: Adobe Illustrator 16.0.0, SVG Export Plug-In . SVG Version: 6.00 Build 0)  -->
<!DOCTYPE svg PUBLIC "-//W3C//DTD SVG 1.1//EN" "http://www.w3.org/Graphics/SVG/1.1/DTD/svg11.dtd">
<svg version="1.1" id="Capa_1" xmlns="http://www.w3.org/2000/svg" xmlns:xlink="http://www.w3.org/1999/xlink" x="0px" y="0px"
	 width="34.793px" height="34.793px" viewBox="0 0 34.793 34.793" style="enable-background:new 0 0 34.793 34.793;"
	 xml:space="preserve">
<g>
	<path d="M31.642,26.045h-1.789l-0.494-4.943c-0.076-0.768-0.722-1.352-1.491-1.352H17.011v-3.611h7.942c0.828,0,1.5-0.671,1.5-1.5
		s-0.672-1.5-1.5-1.5h-7.942v-5.15c1.677-0.511,2.905-2.052,2.905-3.896c0-2.26-1.832-4.093-4.094-4.093
		c-2.26,0-4.094,1.833-4.094,4.093c0,1.605,0.936,2.98,2.281,3.652v0.638C7.122,8.834,1.652,14.565,1.652,21.566
		c0,7.293,5.935,13.227,13.228,13.227c5.36,0,9.978-3.211,12.052-7.807l0.071,0.711c0.074,0.766,0.722,1.35,1.49,1.35h3.146
		c0.828,0,1.5-0.67,1.5-1.5C33.142,26.719,32.469,26.045,31.642,26.045z M14.879,31.791c-5.639,0-10.227-4.588-10.227-10.227
		c0-5.347,4.125-9.74,9.356-10.184v9.867c0,0.83,0.672,1.5,1.5,1.5h9.521C24.442,27.832,20.117,31.791,14.879,31.791z"/>
</g>
<g>
</g>
<g>
</g>
<g>
</g>
<g>
</g>
<g>
</g>
<g>
</g>
<g>
</g>
<g>
</g>
<g>
</g>
<g>
</g>
<g>
</g>
<g>
</g>
<g>
</g>
<g>
</g>
<g>
</g>
</svg>
