<?xml version="1.0" encoding="iso-8859-1"?>
<!-- Generator: Adobe Illustrator 16.0.0, SVG Export Plug-In . SVG Version: 6.00 Build 0)  -->
<!DOCTYPE svg PUBLIC "-//W3C//DTD SVG 1.1//EN" "http://www.w3.org/Graphics/SVG/1.1/DTD/svg11.dtd">
<svg version="1.1" id="Capa_1" xmlns="http://www.w3.org/2000/svg" xmlns:xlink="http://www.w3.org/1999/xlink" x="0px" y="0px"
	 width="30.471px" height="30.471px" viewBox="0 0 30.471 30.471" style="enable-background:new 0 0 30.471 30.471;"
	 xml:space="preserve">
<g>
	<path d="M25.919,4.569H4.554C2.039,4.569,0,6.609,0,9.127v12.217c0,2.516,2.039,4.557,4.554,4.557h21.364
		c2.515,0,4.553-2.041,4.553-4.557V9.127C30.471,6.61,28.432,4.569,25.919,4.569z M12.189,20.39V8.912l8.702,5.738L12.189,20.39z"/>
</g>
<g>
</g>
<g>
</g>
<g>
</g>
<g>
</g>
<g>
</g>
<g>
</g>
<g>
</g>
<g>
</g>
<g>
</g>
<g>
</g>
<g>
</g>
<g>
</g>
<g>
</g>
<g>
</g>
<g>
</g>
</svg>
