<?xml version="1.0" encoding="utf-8"?>
<!-- Generated by IcoMoon.io -->
<!DOCTYPE svg PUBLIC "-//W3C//DTD SVG 1.1//EN" "http://www.w3.org/Graphics/SVG/1.1/DTD/svg11.dtd">
<svg version="1.1" xmlns="http://www.w3.org/2000/svg" xmlns:xlink="http://www.w3.org/1999/xlink" width="16" height="16" viewBox="0 0 16 16">
<path  d="M15.7 5.3l-1-1c-0.2-0.2-0.4-0.3-0.7-0.3h-13c-0.6 0-1 0.4-1 1v5c0 0.3 0.1 0.6 0.3 0.7l1 1c0.2 0.2 0.4 0.3 0.7 0.3h13c0.6 0 1-0.4 1-1v-5c0-0.3-0.1-0.5-0.3-0.7zM14 10h-13v-5h13v5z"></path>
</svg>
