<?xml version="1.0" encoding="utf-8"?>
<!-- Generated by IcoMoon.io -->
<!DOCTYPE svg PUBLIC "-//W3C//DTD SVG 1.1//EN" "http://www.w3.org/Graphics/SVG/1.1/DTD/svg11.dtd">
<svg version="1.1" xmlns="http://www.w3.org/2000/svg" xmlns:xlink="http://www.w3.org/1999/xlink" width="16" height="16" viewBox="0 0 16 16">
<path  d="M3 0h1v3h-1v-3z"></path>
<path  d="M11 0h1v3h-1v-3z"></path>
<path  d="M13 1v3h-3v-3h-5v3h-3v-3h-2v14h5v-1h-4v-8h13v3h1v-8z"></path>
<path  d="M13 10v-2h-4v2h-3v6h10v-6h-3zM10 9h2v1h-2v-1z"></path>
</svg>
