<?xml version="1.0" encoding="utf-8"?>
<!-- Generated by IcoMoon.io -->
<!DOCTYPE svg PUBLIC "-//W3C//DTD SVG 1.1//EN" "http://www.w3.org/Graphics/SVG/1.1/DTD/svg11.dtd">
<svg version="1.1" xmlns="http://www.w3.org/2000/svg" xmlns:xlink="http://www.w3.org/1999/xlink" width="16" height="16" viewBox="0 0 16 16">
<path  d="M15.1 3.1l-2.2-2.2-4.9 5-4.9-5-2.2 2.2 5 4.9-5 4.9 2.2 2.2 4.9-5 4.9 5 2.2-2.2-5-4.9z"></path>
</svg>
