<?xml version="1.0" encoding="utf-8"?>
<!-- Generated by IcoMoon.io -->
<!DOCTYPE svg PUBLIC "-//W3C//DTD SVG 1.1//EN" "http://www.w3.org/Graphics/SVG/1.1/DTD/svg11.dtd">
<svg version="1.1" xmlns="http://www.w3.org/2000/svg" xmlns:xlink="http://www.w3.org/1999/xlink" width="16" height="16" viewBox="0 0 16 16">
<path  d="M13 3h-3l-3-3h-7v13h6v3h10v-10l-3-3zM7 1l2 2h-2v-2zM1 12v-11h5v3h3v8h-8zM15 15h-8v-2h3v-9h2v3h3v8zM13 6v-2l2 2h-2z"></path>
</svg>
