<?xml version="1.0" encoding="utf-8"?>
<!-- Generated by IcoMoon.io -->
<!DOCTYPE svg PUBLIC "-//W3C//DTD SVG 1.1//EN" "http://www.w3.org/Graphics/SVG/1.1/DTD/svg11.dtd">
<svg version="1.1" xmlns="http://www.w3.org/2000/svg" xmlns:xlink="http://www.w3.org/1999/xlink" width="16" height="16" viewBox="0 0 16 16">
<path  d="M6.7 16l9.3-9.3v-1.4l-10.7 10.7z"></path>
<path  d="M9.7 16l6.3-6.3v-1.4l-7.7 7.7z"></path>
<path  d="M12.7 16l3.3-3.3v-1.4l-4.7 4.7z"></path>
<path  d="M15.7 16l0.3-0.3v-1.4l-1.7 1.7z"></path>
</svg>
