<?xml version="1.0" encoding="utf-8"?>
<!-- Generated by IcoMoon.io -->
<!DOCTYPE svg PUBLIC "-//W3C//DTD SVG 1.1//EN" "http://www.w3.org/Graphics/SVG/1.1/DTD/svg11.dtd">
<svg version="1.1" xmlns="http://www.w3.org/2000/svg" xmlns:xlink="http://www.w3.org/1999/xlink" width="16" height="16" viewBox="0 0 16 16">
<path  d="M8 0l-8 2v10l8 4 8-4v-10l-8-2zM14.4 2.6l-5.9 2.2-6.6-2.2 6.1-1.6 6.4 1.6zM1 11.4v-8.1l7 2.4v9.2l-7-3.5z"></path>
</svg>
