<?xml version="1.0" encoding="utf-8"?>
<!-- Generated by IcoMoon.io -->
<!DOCTYPE svg PUBLIC "-//W3C//DTD SVG 1.1//EN" "http://www.w3.org/Graphics/SVG/1.1/DTD/svg11.dtd">
<svg version="1.1" xmlns="http://www.w3.org/2000/svg" xmlns:xlink="http://www.w3.org/1999/xlink" width="16" height="16" viewBox="0 0 16 16">
<path  d="M16 10h-5.5l-2.5 2.5-2.5-2.5h-5.5v6h16v-6zM4 14h-2v-2h2v2z"></path>
<path  d="M10 6v-6h-4v6h-3l5 5 5-5z"></path>
</svg>
