<?xml version="1.0" encoding="utf-8"?>
<!-- Generated by IcoMoon.io -->
<!DOCTYPE svg PUBLIC "-//W3C//DTD SVG 1.1//EN" "http://www.w3.org/Graphics/SVG/1.1/DTD/svg11.dtd">
<svg version="1.1" xmlns="http://www.w3.org/2000/svg" xmlns:xlink="http://www.w3.org/1999/xlink" width="16" height="16" viewBox="0 0 16 16">
<path  d="M0 3h16v2.4l-8 4-8-4z"></path>
<path  d="M0 14l5.5-4.8 2.5 1.4 2.5-1.4 5.5 4.8z"></path>
<path  d="M4.6 8.8l-4.6-2.3v6.5z"></path>
<path  d="M11.4 8.8l4.6-2.3v6.5z"></path>
</svg>
