<?xml version="1.0" encoding="utf-8"?>
<!-- Generated by IcoMoon.io -->
<!DOCTYPE svg PUBLIC "-//W3C//DTD SVG 1.1//EN" "http://www.w3.org/Graphics/SVG/1.1/DTD/svg11.dtd">
<svg version="1.1" xmlns="http://www.w3.org/2000/svg" xmlns:xlink="http://www.w3.org/1999/xlink" width="16" height="16" viewBox="0 0 16 16">
<path  d="M5.3 6.7l1.4-1.4-3-3 1.3-1.3h-4v4l1.3-1.3z"></path>
<path  d="M6.7 10.7l-1.4-1.4-3 3-1.3-1.3v4h4l-1.3-1.3z"></path>
<path  d="M10.7 9.3l-1.4 1.4 3 3-1.3 1.3h4v-4l-1.3 1.3z"></path>
<path  d="M11 1l1.3 1.3-3 3 1.4 1.4 3-3 1.3 1.3v-4z"></path>
</svg>
