<?xml version="1.0" encoding="utf-8"?>
<!-- Generated by IcoMoon.io -->
<!DOCTYPE svg PUBLIC "-//W3C//DTD SVG 1.1//EN" "http://www.w3.org/Graphics/SVG/1.1/DTD/svg11.dtd">
<svg version="1.1" xmlns="http://www.w3.org/2000/svg" xmlns:xlink="http://www.w3.org/1999/xlink" width="16" height="16" viewBox="0 0 16 16">
<path  d="M10 0c0 0-2.1 0-2.7 3l-0.4 2h-1.9l-0.5 1h2.2l-1.4 7c-0.4 2-1.9 2-1.9 2h-1l-0.4 1h3c0 0 2.1 0 2.7-3l1.4-7h2.4l0.5-1h-2.7l0.4-2c0.4-2 1.8-2 1.8-2h1l0.5-1h-3z"></path>
</svg>
