<?xml version="1.0" encoding="utf-8"?>
<!-- Generated by IcoMoon.io -->
<!DOCTYPE svg PUBLIC "-//W3C//DTD SVG 1.1//EN" "http://www.w3.org/Graphics/SVG/1.1/DTD/svg11.dtd">
<svg version="1.1" xmlns="http://www.w3.org/2000/svg" xmlns:xlink="http://www.w3.org/1999/xlink" width="16" height="16" viewBox="0 0 16 16">
<path  d="M15 7h1v1h-1v-1z"></path>
<path  d="M13 7h1v1h-1v-1z"></path>
<path  d="M11 7h1v1h-1v-1z"></path>
<path  d="M9 7h1v1h-1v-1z"></path>
<path  d="M14 6h1v1h-1v-1z"></path>
<path  d="M12 6h1v1h-1v-1z"></path>
<path  d="M10 6h1v1h-1v-1z"></path>
<path  d="M15 5h1v1h-1v-1z"></path>
<path  d="M13 5h1v1h-1v-1z"></path>
<path  d="M11 5h1v1h-1v-1z"></path>
<path  d="M14 4h1v1h-1v-1z"></path>
<path  d="M12 4h1v1h-1v-1z"></path>
<path  d="M15 3h1v1h-1v-1z"></path>
<path  d="M13 3h1v1h-1v-1z"></path>
<path  d="M14 2h1v1h-1v-1z"></path>
<path  d="M15 1h1v1h-1v-1z"></path>
<path  d="M7 15h1v1h-1v-1z"></path>
<path  d="M5 15h1v1h-1v-1z"></path>
<path  d="M3 15h1v1h-1v-1z"></path>
<path  d="M1 15h1v1h-1v-1z"></path>
<path  d="M6 14h1v1h-1v-1z"></path>
<path  d="M4 14h1v1h-1v-1z"></path>
<path  d="M2 14h1v1h-1v-1z"></path>
<path  d="M7 13h1v1h-1v-1z"></path>
<path  d="M5 13h1v1h-1v-1z"></path>
<path  d="M3 13h1v1h-1v-1z"></path>
<path  d="M6 12h1v1h-1v-1z"></path>
<path  d="M4 12h1v1h-1v-1z"></path>
<path  d="M7 11h1v1h-1v-1z"></path>
<path  d="M5 11h1v1h-1v-1z"></path>
<path  d="M6 10h1v1h-1v-1z"></path>
<path  d="M7 9h1v1h-1v-1z"></path>
<path  d="M15 15h1v1h-1v-1z"></path>
<path  d="M13 15h1v1h-1v-1z"></path>
<path  d="M11 15h1v1h-1v-1z"></path>
<path  d="M9 15h1v1h-1v-1z"></path>
<path  d="M14 14h1v1h-1v-1z"></path>
<path  d="M12 14h1v1h-1v-1z"></path>
<path  d="M10 14h1v1h-1v-1z"></path>
<path  d="M8 14h1v1h-1v-1z"></path>
<path  d="M15 13h1v1h-1v-1z"></path>
<path  d="M13 13h1v1h-1v-1z"></path>
<path  d="M11 13h1v1h-1v-1z"></path>
<path  d="M9 13h1v1h-1v-1z"></path>
<path  d="M14 12h1v1h-1v-1z"></path>
<path  d="M12 12h1v1h-1v-1z"></path>
<path  d="M10 12h1v1h-1v-1z"></path>
<path  d="M8 12h1v1h-1v-1z"></path>
<path  d="M15 11h1v1h-1v-1z"></path>
<path  d="M13 11h1v1h-1v-1z"></path>
<path  d="M11 11h1v1h-1v-1z"></path>
<path  d="M9 11h1v1h-1v-1z"></path>
<path  d="M14 10h1v1h-1v-1z"></path>
<path  d="M12 10h1v1h-1v-1z"></path>
<path  d="M10 10h1v1h-1v-1z"></path>
<path  d="M8 10h1v1h-1v-1z"></path>
<path  d="M15 9h1v1h-1v-1z"></path>
<path  d="M13 9h1v1h-1v-1z"></path>
<path  d="M11 9h1v1h-1v-1z"></path>
<path  d="M9 9h1v1h-1v-1z"></path>
<path  d="M14 8h1v1h-1v-1z"></path>
<path  d="M12 8h1v1h-1v-1z"></path>
<path  d="M10 8h1v1h-1v-1z"></path>
<path  d="M8 8h1v1h-1v-1z"></path>
</svg>
