<?xml version="1.0" encoding="utf-8"?>
<!-- Generated by IcoMoon.io -->
<!DOCTYPE svg PUBLIC "-//W3C//DTD SVG 1.1//EN" "http://www.w3.org/Graphics/SVG/1.1/DTD/svg11.dtd">
<svg version="1.1" xmlns="http://www.w3.org/2000/svg" xmlns:xlink="http://www.w3.org/1999/xlink" width="16" height="16" viewBox="0 0 16 16">
<path  d="M0 1h3v2h-3v-2z"></path>
<path  d="M0 5h3v2h-3v-2z"></path>
<path  d="M0 9h3v2h-3v-2z"></path>
<path  d="M0 13h3v2h-3v-2z"></path>
<path  d="M4 1h12v2h-12v-2z"></path>
<path  d="M4 5h12v2h-12v-2z"></path>
<path  d="M4 9h12v2h-12v-2z"></path>
<path  d="M4 13h12v2h-12v-2z"></path>
</svg>
