<?xml version="1.0" encoding="utf-8"?>
<!-- Generated by IcoMoon.io -->
<!DOCTYPE svg PUBLIC "-//W3C//DTD SVG 1.1//EN" "http://www.w3.org/Graphics/SVG/1.1/DTD/svg11.dtd">
<svg version="1.1" xmlns="http://www.w3.org/2000/svg" xmlns:xlink="http://www.w3.org/1999/xlink" width="16" height="16" viewBox="0 0 16 16">
<path  d="M0 1h3v3h-3v-3z"></path>
<path  d="M0 6h3v3h-3v-3z"></path>
<path  d="M0 11h3v3h-3v-3z"></path>
<path  d="M5 1h11v3h-11v-3z"></path>
<path  d="M5 6h11v3h-11v-3z"></path>
<path  d="M5 11h11v3h-11v-3z"></path>
</svg>
