<?xml version="1.0" encoding="utf-8"?>
<!-- Generated by IcoMoon.io -->
<!DOCTYPE svg PUBLIC "-//W3C//DTD SVG 1.1//EN" "http://www.w3.org/Graphics/SVG/1.1/DTD/svg11.dtd">
<svg version="1.1" xmlns="http://www.w3.org/2000/svg" xmlns:xlink="http://www.w3.org/1999/xlink" width="16" height="16" viewBox="0 0 16 16">
<path  d="M11 0h5v4h-5v-4z"></path>
<path  d="M11 5v3c0 1.6-1.4 3-3 3s-3-1.4-3-3v-3h-5v3c0 4.4 3.6 8 8 8s8-3.6 8-8v-3h-5z"></path>
<path  d="M0 0h5v4h-5v-4z"></path>
</svg>
