<?xml version="1.0" encoding="utf-8"?>
<!-- Generated by IcoMoon.io -->
<!DOCTYPE svg PUBLIC "-//W3C//DTD SVG 1.1//EN" "http://www.w3.org/Graphics/SVG/1.1/DTD/svg11.dtd">
<svg version="1.1" xmlns="http://www.w3.org/2000/svg" xmlns:xlink="http://www.w3.org/1999/xlink" width="16" height="16" viewBox="0 0 16 16">
<path  d="M0 7.9l6-4.9v3c0 0 1.1 0 2 0 8 0 8 8 8 8s-1-4-7.8-4c-1.1 0-1.8 0-2.2 0v2.9l-6-5z"></path>
</svg>
