<?xml version="1.0" encoding="utf-8"?>
<!-- Generated by IcoMoon.io -->
<!DOCTYPE svg PUBLIC "-//W3C//DTD SVG 1.1//EN" "http://www.w3.org/Graphics/SVG/1.1/DTD/svg11.dtd">
<svg version="1.1" xmlns="http://www.w3.org/2000/svg" xmlns:xlink="http://www.w3.org/1999/xlink" width="16" height="16" viewBox="0 0 16 16">
<path  d="M7 0h2v16h-2v-16z"></path>
<path  d="M3 5l-3 3 3 3v-2h3v-2h-3z"></path>
<path  d="M16 8l-3-3v2h-3v2h3v2z"></path>
</svg>
