<?xml version="1.0" encoding="utf-8"?>
<!-- Generated by IcoMoon.io -->
<!DOCTYPE svg PUBLIC "-//W3C//DTD SVG 1.1//EN" "http://www.w3.org/Graphics/SVG/1.1/DTD/svg11.dtd">
<svg version="1.1" xmlns="http://www.w3.org/2000/svg" xmlns:xlink="http://www.w3.org/1999/xlink" width="16" height="16" viewBox="0 0 16 16">
<path  d="M9 9v-7h7v7.1c0 4.8-4.5 5.4-4.5 5.4l-0.6-1.4c0 0 2-0.3 2.4-1.9 0.4-1.2-0.4-2.2-0.4-2.2h-3.9z"></path>
<path  d="M0 9v-7h7v7.1c0 4.8-4.5 5.4-4.5 5.4l-0.6-1.4c0 0 2-0.3 2.4-1.9 0.4-1.2-0.4-2.2-0.4-2.2h-3.9z"></path>
</svg>
