<?xml version="1.0" encoding="utf-8"?>
<!-- Generated by IcoMoon.io -->
<!DOCTYPE svg PUBLIC "-//W3C//DTD SVG 1.1//EN" "http://www.w3.org/Graphics/SVG/1.1/DTD/svg11.dtd">
<svg version="1.1" xmlns="http://www.w3.org/2000/svg" xmlns:xlink="http://www.w3.org/1999/xlink" width="16" height="16" viewBox="0 0 16 16">
<path  d="M1 0h12v2h-12v-2z"></path>
<path  d="M1 8h13v2h-13v-2z"></path>
<path  d="M1 11h11v2h-11v-2z"></path>
<path  d="M1 14h14v2h-14v-2z"></path>
<path  d="M0 3v4h16v-4h-16zM11 6h-10v-2h10v2z"></path>
</svg>
