<?xml version="1.0" encoding="utf-8"?>
<!-- Generated by IcoMoon.io -->
<!DOCTYPE svg PUBLIC "-//W3C//DTD SVG 1.1//EN" "http://www.w3.org/Graphics/SVG/1.1/DTD/svg11.dtd">
<svg version="1.1" xmlns="http://www.w3.org/2000/svg" xmlns:xlink="http://www.w3.org/1999/xlink" width="16" height="16" viewBox="0 0 16 16">
<path  d="M12.9 3.1c1.3 1.2 2.1 3 2.1 4.9 0 3.9-3.1 7-7 7s-7-3.1-7-7c0-1.9 0.8-3.7 2.1-4.9l-0.8-0.8c-1.4 1.5-2.3 3.5-2.3 5.7 0 4.4 3.6 8 8 8s8-3.6 8-8c0-2.2-0.9-4.2-2.3-5.7l-0.8 0.8z"></path>
</svg>
