<?xml version="1.0" encoding="utf-8"?>
<!-- Generated by IcoMoon.io -->
<!DOCTYPE svg PUBLIC "-//W3C//DTD SVG 1.1//EN" "http://www.w3.org/Graphics/SVG/1.1/DTD/svg11.dtd">
<svg version="1.1" xmlns="http://www.w3.org/2000/svg" xmlns:xlink="http://www.w3.org/1999/xlink" width="16" height="16" viewBox="0 0 16 16">
<path  d="M0 0h4v4h-4v-4z"></path>
<path  d="M0 6h4v4h-4v-4z"></path>
<path  d="M0 12h4v4h-4v-4z"></path>
<path  d="M6 0h4v4h-4v-4z"></path>
<path  d="M6 6h4v4h-4v-4z"></path>
<path  d="M6 12h4v4h-4v-4z"></path>
<path  d="M12 0h4v4h-4v-4z"></path>
<path  d="M12 6h4v4h-4v-4z"></path>
<path  d="M12 12h4v4h-4v-4z"></path>
</svg>
