<?xml version="1.0" encoding="utf-8"?>
<!-- Generated by IcoMoon.io -->
<!DOCTYPE svg PUBLIC "-//W3C//DTD SVG 1.1//EN" "http://www.w3.org/Graphics/SVG/1.1/DTD/svg11.dtd">
<svg version="1.1" xmlns="http://www.w3.org/2000/svg" xmlns:xlink="http://www.w3.org/1999/xlink" width="16" height="16" viewBox="0 0 16 16">
<path  d="M15.9 6.2l-5.5-0.8-2.4-5-2.4 5-5.5 0.8 3.9 3.8-0.9 5.4 4.9-2.5 4.9 2.6-0.9-5.5 3.9-3.8zM8 11.8v-9.1l1.8 3.6 4 0.6-2.9 2.8 0.7 4-3.6-1.9z"></path>
</svg>
