<?xml version="1.0" encoding="utf-8"?>
<!-- Generated by IcoMoon.io -->
<!DOCTYPE svg PUBLIC "-//W3C//DTD SVG 1.1//EN" "http://www.w3.org/Graphics/SVG/1.1/DTD/svg11.dtd">
<svg version="1.1" xmlns="http://www.w3.org/2000/svg" xmlns:xlink="http://www.w3.org/1999/xlink" width="16" height="16" viewBox="0 0 16 16">
<path  d="M16 5v1h-4v-1c0 0 3.3-1.6 2.6-3.2-0.5-1.1-2-0.2-2-0.2l-0.5-0.9c0 0 1.9-1.4 3.1-0.2 2.4 2.3-1.4 4.5-1.4 4.5h2.2z"></path>
<path  d="M12 3h-3.4l-2.6 3-2.6-3h-3.4l4.3 5-4.3 5h3.4l2.6-3 2.6 3h3.4l-4.3-5z"></path>
</svg>
