<?xml version="1.0" encoding="utf-8"?>
<!-- Generated by IcoMoon.io -->
<!DOCTYPE svg PUBLIC "-//W3C//DTD SVG 1.1//EN" "http://www.w3.org/Graphics/SVG/1.1/DTD/svg11.dtd">
<svg version="1.1" xmlns="http://www.w3.org/2000/svg" xmlns:xlink="http://www.w3.org/1999/xlink" width="16" height="16" viewBox="0 0 16 16">
<path  d="M0 8h6v2h4v-2h6v6h-16z"></path>
<path  d="M7 7h2v2h-2v-2z"></path>
<path  d="M11 4v-2h-6v2h-5v3h6v-1h4v1h6v-3h-5zM6 4v-1h4v1h-4z"></path>
</svg>
