<?xml version="1.0" encoding="utf-8"?>
<!-- Generated by IcoMoon.io -->
<!DOCTYPE svg PUBLIC "-//W3C//DTD SVG 1.1//EN" "http://www.w3.org/Graphics/SVG/1.1/DTD/svg11.dtd">
<svg version="1.1" xmlns="http://www.w3.org/2000/svg" xmlns:xlink="http://www.w3.org/1999/xlink" width="16" height="16" viewBox="0 0 16 16">
<path  d="M15 8c0 3.9-3.1 7-7 7s-7-3.1-7-7 3.1-7 7-7 7 3.1 7 7zM16 8c0-4.4-3.6-8-8-8s-8 3.6-8 8c0 4.4 3.6 8 8 8s8-3.6 8-8v0z"></path>
<path  d="M7 6.4l-1.8 1.8-1.4-1.4 4.2-4.2 4.2 4.2-1.4 1.4-1.8-1.8v6.6h-2v-6.6z"></path>
</svg>
