<?xml version="1.0" encoding="utf-8"?>
<!-- Generated by IcoMoon.io -->
<!DOCTYPE svg PUBLIC "-//W3C//DTD SVG 1.1//EN" "http://www.w3.org/Graphics/SVG/1.1/DTD/svg11.dtd">
<svg version="1.1" xmlns="http://www.w3.org/2000/svg" xmlns:xlink="http://www.w3.org/1999/xlink" width="16" height="16" viewBox="0 0 16 16">
<path  d="M1 4h-1v-4h4v1h-3z"></path>
<path  d="M12 1v-1h4v4h-1v-3z"></path>
<path  d="M15 12h1v4h-4v-1h3z"></path>
<path  d="M4 15v1h-4v-4h1v3z"></path>
<path  d="M13 3v10h-10v-10h10zM14 2h-12v12h12v-12z"></path>
</svg>
