<?xml version="1.0" encoding="utf-8"?>
<!-- Generated by IcoMoon.io -->
<!DOCTYPE svg PUBLIC "-//W3C//DTD SVG 1.1//EN" "http://www.w3.org/Graphics/SVG/1.1/DTD/svg11.dtd">
<svg version="1.1" xmlns="http://www.w3.org/2000/svg" xmlns:xlink="http://www.w3.org/1999/xlink" width="16" height="16" viewBox="0 0 16 16">
<path  d="M10.8 4.4l-0.5 1.1c0.5 0.9 0.8 1.9 0.8 3 0 1-0.3 2-0.7 2.9l0.7 0.9c0.6-1.1 1-2.4 1-3.7-0.1-1.6-0.5-3-1.3-4.2z"></path>
<path  d="M4 5h-4v6h4l5 4v-14z"></path>
</svg>
