<?xml version="1.0" encoding="iso-8859-1"?>
<!-- Generator: Adobe Illustrator 19.0.0, SVG Export Plug-In . SVG Version: 6.00 Build 0)  -->
<svg version="1.1" id="Capa_1" xmlns="http://www.w3.org/2000/svg" xmlns:xlink="http://www.w3.org/1999/xlink" x="0px" y="0px"
	 viewBox="0 0 512.003 512.003" style="enable-background:new 0 0 512.003 512.003;" xml:space="preserve">
<g>
	<g>
		<path d="M511.267,196.536c-1.832-5.638-6.796-9.667-12.685-10.282l-162.375-17.371L269.197,18.851
			c-4.834-10.78-22.557-10.78-27.391,0l-67.011,150.031L13.42,186.253c-5.888,0.615-10.854,4.643-12.685,10.282
			c-1.831,5.625-0.176,11.806,4.219,15.761L124.922,322.37L90.955,483.123c-1.216,5.799,1.069,11.761,5.858,15.233
			c4.82,3.501,11.191,3.838,16.303,0.864l142.385-81.966l142.385,81.965c2.329,1.348,4.907,2.007,7.484,2.007
			c3.106,0,6.196-0.967,8.818-2.871c4.79-3.471,7.074-9.432,5.858-15.233l-33.967-160.753l120.969-110.073
			C511.443,208.341,513.098,202.16,511.267,196.536z"/>
	</g>
</g>
<g>
</g>
<g>
</g>
<g>
</g>
<g>
</g>
<g>
</g>
<g>
</g>
<g>
</g>
<g>
</g>
<g>
</g>
<g>
</g>
<g>
</g>
<g>
</g>
<g>
</g>
<g>
</g>
<g>
</g>
</svg>
