<?xml version="1.0" encoding="iso-8859-1"?>
<!-- Generator: Adobe Illustrator 19.0.0, SVG Export Plug-In . SVG Version: 6.00 Build 0)  -->
<svg version="1.1" id="Capa_1" xmlns="http://www.w3.org/2000/svg" xmlns:xlink="http://www.w3.org/1999/xlink" x="0px" y="0px"
	 viewBox="0 0 512 512" style="enable-background:new 0 0 512 512;" xml:space="preserve">
<g>
	<g>
		<path d="M46,0c-8.291,0-15,6.709-15,15v482c0,8.291,6.709,15,15,15s15-6.709,15-15V15C61,6.709,54.291,0,46,0z"/>
	</g>
</g>
<g>
	<g>
		<path d="M286,60H106c-8.291,0-15,6.709-15,15v120c0,8.291,6.709,15,15,15h180c8.291,0,15-6.709,15-15V75
			C301,66.709,294.291,60,286,60z"/>
	</g>
</g>
<g>
	<g>
		<path d="M466,300H106c-8.291,0-15,6.709-15,15v120c0,8.291,6.709,15,15,15h360c8.291,0,15-6.709,15-15V315
			C481,306.709,474.291,300,466,300z"/>
	</g>
</g>
<g>
</g>
<g>
</g>
<g>
</g>
<g>
</g>
<g>
</g>
<g>
</g>
<g>
</g>
<g>
</g>
<g>
</g>
<g>
</g>
<g>
</g>
<g>
</g>
<g>
</g>
<g>
</g>
<g>
</g>
</svg>
