<?xml version="1.0" encoding="iso-8859-1"?>
<!-- Generator: Adobe Illustrator 19.0.0, SVG Export Plug-In . SVG Version: 6.00 Build 0)  -->
<svg version="1.1" id="Capa_1" xmlns="http://www.w3.org/2000/svg" xmlns:xlink="http://www.w3.org/1999/xlink" x="0px" y="0px"
	 viewBox="0 0 512 512" style="enable-background:new 0 0 512 512;" xml:space="preserve">
<g>
	<g>
		<g>
			<path d="M122,375c0,8.399,6.599,15,15,15h105V270H122V375z"/>
			<path d="M497,0H137c-8.401,0-15,6.599-15,15v225h135c8.401,0,15,6.599,15,15v135h225c8.401,0,15-6.601,15-15V15
				C512,6.599,505.401,0,497,0z M452,165c0,8.399-6.599,15-15,15s-15-6.601-15-15v-53.701l-94.501,94.2
				C324.8,208.5,320.9,210,317,210c-3.9,0-7.8-1.5-10.499-4.501c-6-5.7-6-15.3,0-21L400.699,90H347c-8.401,0-15-6.601-15-15
				c0-8.401,6.599-15,15-15h90c2.1,0,3.9,0.3,5.7,1.199c3.6,1.5,6.599,4.501,8.101,8.101C451.7,71.1,452,72.9,452,75V165z"/>
		</g>
	</g>
</g>
<g>
	<g>
		<path d="M242,390v92H30V270h92v-30H15c-8.401,0-15,6.599-15,15v242c0,8.399,6.599,15,15,15h242c8.401,0,15-6.601,15-15V390H242z"
			/>
	</g>
</g>
<g>
</g>
<g>
</g>
<g>
</g>
<g>
</g>
<g>
</g>
<g>
</g>
<g>
</g>
<g>
</g>
<g>
</g>
<g>
</g>
<g>
</g>
<g>
</g>
<g>
</g>
<g>
</g>
<g>
</g>
</svg>
