<?xml version="1.0" encoding="iso-8859-1"?>
<!-- Generator: Adobe Illustrator 19.0.0, SVG Export Plug-In . SVG Version: 6.00 Build 0)  -->
<svg version="1.1" id="Capa_1" xmlns="http://www.w3.org/2000/svg" xmlns:xlink="http://www.w3.org/1999/xlink" x="0px" y="0px"
	 viewBox="0 0 511.999 511.999" style="enable-background:new 0 0 511.999 511.999;" xml:space="preserve">
<g>
	<g>
		<path d="M507.605,131.78L380.325,4.5c-5.859-5.859-15.352-5.859-21.211,0l-67.632,67.633c-5.859,5.859-5.859,15.352,0,21.211
			l127.28,127.28c2.929,2.93,6.767,4.395,10.605,4.395s7.676-1.465,10.605-4.395l67.633-67.633
			C513.464,147.132,513.464,137.639,507.605,131.78z"/>
	</g>
</g>
<g>
	<g>
		<path d="M397.551,241.835l-127.28-127.28c-0.187-0.187-0.313-0.416-0.496-0.604l-143.483,71.737
			c-3.281,1.641-5.859,4.438-7.222,7.852L0.212,490.683L182.51,308.385c-2.807-5.867-4.51-12.352-4.51-19.279
			c0-24.814,20.186-45,45-45c24.814,0,45,20.186,45,45c0,24.814-20.186,45-45,45c-6.927,0-13.412-1.703-19.279-4.51L21.423,511.894
			l297.144-118.857c3.413-1.362,6.211-3.94,7.852-7.222l71.737-143.483C397.966,242.149,397.738,242.022,397.551,241.835z"/>
	</g>
</g>
<g>
	<g>
		<path d="M223,274.106c-8.276,0-15,6.724-15,15s6.724,15,15,15s15-6.724,15-15S231.276,274.106,223,274.106z"/>
	</g>
</g>
<g>
	<g>
		<path d="M135,72.894H90v-45c0-8.291-6.709-15-15-15s-15,6.709-15,15v45H15c-8.291,0-15,6.709-15,15s6.709,15,15,15h45v45
			c0,8.291,6.709,15,15,15s15-6.709,15-15v-45h45c8.291,0,15-6.709,15-15S143.291,72.894,135,72.894z"/>
	</g>
</g>
<g>
</g>
<g>
</g>
<g>
</g>
<g>
</g>
<g>
</g>
<g>
</g>
<g>
</g>
<g>
</g>
<g>
</g>
<g>
</g>
<g>
</g>
<g>
</g>
<g>
</g>
<g>
</g>
<g>
</g>
</svg>
