<?xml version="1.0" encoding="iso-8859-1"?>
<!-- Generator: Adobe Illustrator 19.0.0, SVG Export Plug-In . SVG Version: 6.00 Build 0)  -->
<svg version="1.1" id="Capa_1" xmlns="http://www.w3.org/2000/svg" xmlns:xlink="http://www.w3.org/1999/xlink" x="0px" y="0px"
	 viewBox="0 0 512 512" style="enable-background:new 0 0 512 512;" xml:space="preserve">
<g>
	<g>
		<path d="M466,0c-8.291,0-15,6.709-15,15v482c0,8.291,6.709,15,15,15c8.291,0,15-6.709,15-15V15C481,6.709,474.291,0,466,0z"/>
	</g>
</g>
<g>
	<g>
		<path d="M406,60H226c-8.291,0-15,6.709-15,15v120c0,8.291,6.709,15,15,15h180c8.291,0,15-6.709,15-15V75
			C421,66.709,414.291,60,406,60z"/>
	</g>
</g>
<g>
	<g>
		<path d="M406,300H46c-8.291,0-15,6.709-15,15v120c0,8.291,6.709,15,15,15h360c8.291,0,15-6.709,15-15V315
			C421,306.709,414.291,300,406,300z"/>
	</g>
</g>
<g>
</g>
<g>
</g>
<g>
</g>
<g>
</g>
<g>
</g>
<g>
</g>
<g>
</g>
<g>
</g>
<g>
</g>
<g>
</g>
<g>
</g>
<g>
</g>
<g>
</g>
<g>
</g>
<g>
</g>
</svg>
