<?xml version="1.0" encoding="iso-8859-1"?>
<!-- Generator: Adobe Illustrator 19.0.0, SVG Export Plug-In . SVG Version: 6.00 Build 0)  -->
<svg version="1.1" id="Capa_1" xmlns="http://www.w3.org/2000/svg" xmlns:xlink="http://www.w3.org/1999/xlink" x="0px" y="0px"
	 viewBox="0 0 512 512" style="enable-background:new 0 0 512 512;" xml:space="preserve">
<g>
	<g>
		<path d="M497,451H15.417C7.126,451,0,457.709,0,466c0,8.291,7.126,15,15.417,15H497c8.291,0,15-6.709,15-15
			C512,457.709,505.291,451,497,451z"/>
	</g>
</g>
<g>
	<g>
		<path d="M435.417,211h-120c-8.291,0-15,6.709-15,15v180c0,8.291,6.709,15,15,15h120c8.291,0,15-6.709,15-15V226
			C450.417,217.709,443.708,211,435.417,211z"/>
	</g>
</g>
<g>
	<g>
		<path d="M195.417,31h-120c-8.291,0-15,6.709-15,15v360c0,8.291,6.709,15,15,15h120c8.291,0,15-6.709,15-15V46
			C210.417,37.709,203.708,31,195.417,31z"/>
	</g>
</g>
<g>
</g>
<g>
</g>
<g>
</g>
<g>
</g>
<g>
</g>
<g>
</g>
<g>
</g>
<g>
</g>
<g>
</g>
<g>
</g>
<g>
</g>
<g>
</g>
<g>
</g>
<g>
</g>
<g>
</g>
</svg>
