<?xml version="1.0" encoding="iso-8859-1"?>
<!-- Generator: Adobe Illustrator 19.0.0, SVG Export Plug-In . SVG Version: 6.00 Build 0)  -->
<svg version="1.1" id="Capa_1" xmlns="http://www.w3.org/2000/svg" xmlns:xlink="http://www.w3.org/1999/xlink" x="0px" y="0px"
	 viewBox="0 0 512 512" style="enable-background:new 0 0 512 512;" xml:space="preserve">
<g>
	<g>
		<path d="M83.789,226.999L4.395,306.394c-5.859,5.859-5.859,15.352,0,21.211l180,180c2.93,2.93,6.768,4.395,10.605,4.395
			s7.676-1.465,10.605-4.395L285,428.21L83.789,226.999z"/>
	</g>
</g>
<g>
	<g>
		<path d="M507.605,184.394l-180-180c-5.859-5.859-15.352-5.859-21.211,0L105,205.788l201.211,201.211l201.395-201.395
			C513.465,199.745,513.465,190.253,507.605,184.394z"/>
	</g>
</g>
<g>
</g>
<g>
</g>
<g>
</g>
<g>
</g>
<g>
</g>
<g>
</g>
<g>
</g>
<g>
</g>
<g>
</g>
<g>
</g>
<g>
</g>
<g>
</g>
<g>
</g>
<g>
</g>
<g>
</g>
</svg>
