<?xml version="1.0" encoding="iso-8859-1"?>
<!-- Generator: Adobe Illustrator 19.0.0, SVG Export Plug-In . SVG Version: 6.00 Build 0)  -->
<svg version="1.1" id="Capa_1" xmlns="http://www.w3.org/2000/svg" xmlns:xlink="http://www.w3.org/1999/xlink" x="0px" y="0px"
	 viewBox="0 0 512 512" style="enable-background:new 0 0 512 512;" xml:space="preserve">
<g>
	<g>
		<path d="M510.02,248.552L389.922,38.381c-2.668-4.677-7.652-7.565-13.033-7.565H135.11c-5.38,0-10.364,2.888-13.033,7.565
			L1.979,248.552c-2.639,4.618-2.639,10.277,0,14.895l120.098,210.171c2.668,4.677,7.652,7.565,13.033,7.565h241.78
			c5.38,0,10.364-2.888,13.033-7.565L510.02,263.447C512.659,258.83,512.659,253.17,510.02,248.552z"/>
	</g>
</g>
<g>
</g>
<g>
</g>
<g>
</g>
<g>
</g>
<g>
</g>
<g>
</g>
<g>
</g>
<g>
</g>
<g>
</g>
<g>
</g>
<g>
</g>
<g>
</g>
<g>
</g>
<g>
</g>
<g>
</g>
</svg>
