<?xml version="1.0" encoding="iso-8859-1"?>
<!-- Generator: Adobe Illustrator 19.0.0, SVG Export Plug-In . SVG Version: 6.00 Build 0)  -->
<svg version="1.1" id="Capa_1" xmlns="http://www.w3.org/2000/svg" xmlns:xlink="http://www.w3.org/1999/xlink" x="0px" y="0px"
	 viewBox="0 0 512 512" style="enable-background:new 0 0 512 512;" xml:space="preserve">
<g>
	<g>
		<path d="M481.24,90H497c8.291,0,15-6.709,15-15V15c0-8.291-6.709-15-15-15h-60c-8.291,0-15,6.709-15,15v60c0,8.291,6.709,15,15,15
			h14.24c-7.165,79.021-70.219,142.075-149.24,149.24V225c0-8.291-6.709-15-15-15h-60c-8.291,0-15,6.709-15,15v15H87.237
			C81.024,222.578,64.53,210,45,210c-24.814,0-45,20.186-45,45c0,24.814,20.186,45,45,45c19.53,0,36.024-12.578,42.237-30h36.321
			c-50.891,32.023-85.95,86.783-90.798,150H15c-8.291,0-15,6.709-15,15v62c0,8.291,6.709,15,15,15h62c8.291,0,15-6.709,15-15v-62
			c0-8.291-6.709-15-15-15H62.76c7.165-79.021,70.219-142.075,149.24-149.24V285c0,8.291,6.709,15,15,15h60c8.291,0,15-6.709,15-15
			v-15h122.763c6.213,17.422,22.707,30,42.237,30c24.814,0,45-20.186,45-45c0-24.814-20.186-45-45-45
			c-19.53,0-36.024,12.578-42.237,30h-34.321C441.332,207.977,476.391,153.217,481.24,90z"/>
	</g>
</g>
<g>
</g>
<g>
</g>
<g>
</g>
<g>
</g>
<g>
</g>
<g>
</g>
<g>
</g>
<g>
</g>
<g>
</g>
<g>
</g>
<g>
</g>
<g>
</g>
<g>
</g>
<g>
</g>
<g>
</g>
</svg>
